<?xml version="1.0" encoding="UTF-8" standalone="no"?>
<!DOCTYPE svg PUBLIC "-//W3C//DTD SVG 1.1//EN" "http://www.w3.org/Graphics/SVG/1.1/DTD/svg11.dtd">
<svg xmlns="http://www.w3.org/2000/svg">
<metadata>
This is a custom SVG webfont generated by Font Squirrel.
Foundry     : Dalton Maag Ltd
</metadata>
<defs>
<font id="AllerBoldItalic" horiz-adv-x="1228">
<font-face units-per-em="2048" ascent="1638" descent="-410"/>
<missing-glyph horiz-adv-x="428"/>
<glyph unicode=" " horiz-adv-x="428"/>
<glyph unicode="	" horiz-adv-x="428"/>
<glyph unicode=" " horiz-adv-x="428"/>
<glyph unicode="!" horiz-adv-x="589" d="M141 0q0 80 13.5 151.5t38.5 147.5q41 8 77.5 11t73.5 3q35 0 73 -3t75 -11q0 -80 -13.5 -151.5t-38.5 -147.5q-41 -8 -77.5 -11t-73.5 -3q-35 0 -73 3t-75 11zM236 471l161 1002q43 8 82 10t78 2q37 0 77 -2t79 -10l-201 -1002q-39 -6 -71.5 -9t-67.5 -3q-69 0 -137 12z "/>
<glyph unicode="&quot;" horiz-adv-x="874" d="M248 897l100 573q35 8 66.5 10.5t66.5 2.5q33 0 65 -2t66 -11l-100 -573q-37 -6 -68.5 -8t-64.5 -2q-35 0 -66.5 2t-64.5 8zM637 897l100 573q35 8 67 10.5t66 2.5q33 0 65 -2t66 -11l-100 -573q-37 -6 -68.5 -8t-64.5 -2q-35 0 -66.5 2t-64.5 8z"/>
<glyph unicode="#" horiz-adv-x="1503" d="M190 420q0 53 10.5 105.5t28.5 111.5h248l66 248h-230q0 115 39 219h248l80 309q35 6 64.5 8t64.5 2q31 0 60.5 -2t58.5 -8l-80 -309h250l80 309q35 6 64.5 8t64.5 2q31 0 60.5 -2t59.5 -8l-79 -309h215q-4 -53 -11.5 -105.5t-27.5 -113.5h-232l-65 -248h213 q0 -53 -9.5 -105.5t-27.5 -111.5h-232l-92 -359q-37 -6 -66.5 -8t-62 -2t-61.5 2t-60 8l93 359h-248l-92 -359q-35 -6 -66 -8t-65 -2q-31 0 -60 2t-61 8l92 359h-232zM727 637h250l65 248h-249z"/>
<glyph unicode="$" d="M156 47q8 61 20 123.5t43 134.5q78 -37 160 -55.5t162 -18.5q63 0 117.5 14.5t94.5 40t62.5 62.5t22.5 82t-18.5 78t-51.5 60.5t-75 53.5l-89 54q-68 41 -118 80t-81.5 83t-48 94t-16.5 116q0 178 122 290.5t335 135.5l32 182q45 12 90.5 12t88.5 -12l-33 -178 q78 -6 143.5 -22.5t136.5 -45.5q-8 -55 -23 -115.5t-52 -119.5q-59 29 -126 47t-167 18q-37 0 -79 -6t-76 -23.5t-56.5 -48t-22.5 -80.5q0 -59 50.5 -103t144.5 -101q68 -41 125 -80t99 -84t66.5 -100.5t24.5 -129.5q0 -84 -27.5 -162.5t-83 -144t-140.5 -114t-199 -70.5 l-39 -236q-47 -12 -90 -12q-45 0 -88 12l39 217h-13q-98 0 -185 15.5t-181 56.5z"/>
<glyph unicode="%" horiz-adv-x="2062" d="M227 936q0 102 30 198.5t87 172t143 121t201 45.5q84 0 144.5 -27t98.5 -73t56.5 -107.5t18.5 -130.5q0 -111 -33 -207.5t-92.5 -169t-143.5 -114.5t-188 -42q-86 0 -147.5 26.5t-99.5 71.5t-56.5 106.5t-18.5 129.5zM477 942q0 -68 24.5 -106.5t73.5 -38.5q51 0 85 34.5 t55.5 85t31 106.5t9.5 101q0 72 -23.5 112t-77.5 40q-51 0 -85.5 -36t-55 -88t-29 -109.5t-8.5 -100.5zM512 4l989 1448q70 12 144 12q63 0 141 -12l-991 -1448q-72 -12 -138 -12q-69 0 -145 12zM1284 309q0 102 29.5 198.5t87 172.5t143.5 121t201 45q84 0 144.5 -26.5 t98 -73t56 -107.5t18.5 -131q0 -111 -32.5 -207t-92 -169t-143.5 -115t-188 -42q-86 0 -147.5 27t-99.5 72t-56.5 106t-18.5 129zM1534 315q0 -68 24.5 -106.5t73.5 -38.5q51 0 85 35t55.5 85t30.5 106.5t9 101.5q0 72 -23.5 111.5t-76.5 39.5q-51 0 -86 -35.5t-55.5 -88 t-28.5 -110t-8 -100.5z"/>
<glyph unicode="&amp;" horiz-adv-x="1515" d="M184 371q0 90 29 164.5t74 133t102 99.5t113 63q-57 35 -97 98.5t-40 149.5q0 102 43 180t113.5 131.5t160.5 80t184 26.5q68 0 139.5 -10t129.5 -35q-4 -57 -16.5 -108.5t-47.5 -108.5q-63 23 -107 30t-90 7q-43 0 -82.5 -10.5t-69.5 -32t-48.5 -55t-18.5 -80.5 q0 -59 36 -99.5t120 -40.5h338l4 21q10 51 12 97t2 77q53 35 131 49t146 14q10 -31 10 -77q0 -33 -5 -71t-13 -83l-6 -27h163q-4 -61 -13 -111t-26 -110h-161l-43 -250q-27 -147 -89.5 -245.5t-151.5 -156.5t-199.5 -82t-233.5 -24q-102 0 -191.5 22.5t-156 70t-105.5 123.5 t-39 180zM496 418q0 -90 59 -141.5t166 -51.5q86 0 147.5 24.5t104.5 69t69.5 105.5t38.5 135l29 174h-256q-74 0 -120 -11t-75 -26q-74 -37 -118.5 -108.5t-44.5 -169.5z"/>
<glyph unicode="'" horiz-adv-x="485" d="M248 897l100 573q35 8 66.5 10.5t66.5 2.5q33 0 65 -2t66 -11l-100 -573q-37 -6 -68.5 -8t-64.5 -2q-35 0 -66.5 2t-64.5 8z"/>
<glyph unicode="(" horiz-adv-x="755" d="M246 274q0 244 40 446t103.5 363.5t139 286.5t149.5 217q23 6 56.5 10.5t80.5 4.5q41 0 84 -3.5t72 -11.5q-211 -293 -319.5 -620.5t-108.5 -687.5q0 -115 9 -215.5t23.5 -180.5t30 -137t25.5 -86q-33 -8 -74 -11t-82 -3t-74.5 4t-54.5 10q-18 49 -36.5 115.5t-33 146.5 t-22.5 169t-8 183z"/>
<glyph unicode=")" horiz-adv-x="786" d="M-10 -340q211 293 319.5 620.5t108.5 688.5q0 115 -10.5 215t-23.5 180t-28.5 137.5t-25.5 85.5q33 8 73.5 11.5t81.5 3.5t75 -4.5t54 -10.5q18 -49 37 -115.5t33 -146.5t22.5 -169t8.5 -183q0 -244 -40 -445.5t-103.5 -363.5t-139.5 -287t-149 -217q-23 -6 -56.5 -10 t-81.5 -4q-41 0 -83.5 3t-71.5 11z"/>
<glyph unicode="*" horiz-adv-x="1011" d="M256 1102q10 37 26.5 72.5t39.5 64.5l266 -68q-16 -49 -40 -93t-54 -89zM319 719l179 235q31 -20 72.5 -55t72.5 -72l-209 -211q-29 16 -62 45t-53 58zM610 1192l72 278q20 4 40.5 6.5t39.5 2.5q43 0 82 -9l-27 -278q-31 -4 -57.5 -6t-52.5 -2q-25 0 -48.5 2t-48.5 6z M678 836q43 37 83 63.5t87 48.5l102 -250q-31 -29 -60.5 -47t-70.5 -39zM836 1067q-2 26 -2 51.5t2 50.5l274 68q10 -33 17.5 -67.5t7.5 -82.5l-273 -112q-22 41 -26 92z"/>
<glyph unicode="+" d="M272 600q0 119 43 248h318l65 362q61 12 129 13q66 0 127 -13l-65 -362h317q1 -15 1 -30q0 -45 -9 -92q-12 -62 -35 -126h-317l-64 -362q-66 -12 -129 -13q-70 0 -127 13l64 362h-318z"/>
<glyph unicode="," horiz-adv-x="593" d="M37 -229l221 522q35 10 71 13t68.5 3t71.5 -3t72 -13l-234 -522q-37 -8 -71.5 -10.5t-67.5 -2.5t-64.5 2.5t-66.5 10.5z"/>
<glyph unicode="-" horiz-adv-x="749" d="M207 475q0 61 11 122.5t32 129.5h512v-18q0 -55 -10 -110q-12 -65 -33 -124h-512z"/>
<glyph unicode="." horiz-adv-x="589" d="M145 0q0 80 13.5 151.5t38.5 147.5q41 8 77.5 11t73.5 3q35 0 73 -3t75 -11q0 -80 -13.5 -151.5t-38.5 -147.5q-41 -8 -77.5 -11t-73.5 -3q-35 0 -73 3t-75 11z"/>
<glyph unicode="/" horiz-adv-x="823" d="M31 0l729 1470q78 14 149 15q76 0 142 -15l-732 -1470q-80 -12 -149 -12t-139 12z"/>
<glyph unicode="0" d="M172 473q0 92 16.5 192.5t52 199t89 187.5t127 156.5t167 107.5t210.5 40q115 0 199.5 -35t140 -100.5t82 -158.5t26.5 -210q0 -92 -17.5 -193.5t-52 -198.5t-89 -185.5t-128 -155t-168 -105.5t-209.5 -39q-229 0 -337.5 133.5t-108.5 364.5zM469 463q0 -123 44 -182.5 t128 -59.5q61 0 110.5 33t86 86t64.5 121.5t44.5 140.5t24.5 140.5t8 123.5q0 240 -168 240q-94 0 -158.5 -68.5t-105.5 -169t-59.5 -211t-18.5 -194.5z"/>
<glyph unicode="1" d="M229 0q0 123 43 246h277l123 704l-244 -96q-16 31 -28.5 59.5t-20.5 53.5q-10 29 -14.5 55.5t-8.5 56.5l611 260h67l-192 -1093h274q0 -55 -10 -114.5t-33 -131.5h-844z"/>
<glyph unicode="2" d="M92 29l373 395q39 43 102.5 105.5t125 135t105.5 149.5t44 147q0 66 -52.5 103.5t-136.5 37.5q-76 0 -135 -18.5t-131 -47.5q-29 53 -47 114.5t-21 125.5q106 39 199.5 59.5t210.5 20.5q94 0 172 -21.5t134.5 -64.5t87 -107.5t30.5 -150.5q0 -90 -31.5 -170t-83 -155 t-117.5 -146l-135 -142l-143 -149h453q0 -63 -10.5 -123.5t-32.5 -126.5h-951z"/>
<glyph unicode="3" d="M88 -72q10 59 27.5 118.5t46.5 121.5q72 -27 149.5 -41t155.5 -14q63 0 124.5 16t109 50t77 86t29.5 124q0 53 -17.5 89t-47 57.5t-69.5 30.5t-83 9q-41 0 -81 -5t-79 -15l-18 39l372 491h-446q0 61 10 123t33 127h838l18 -35l-426 -544q158 -16 232.5 -112.5 t74.5 -246.5q0 -127 -54 -226t-145.5 -168t-211 -104.5t-250.5 -35.5q-51 0 -95.5 3t-87.5 10t-89 20.5t-97 31.5z"/>
<glyph unicode="4" d="M78 195l717 1171q72 -8 134 -30.5t109 -67.5l-516 -854h287l65 368q35 4 70 7.5t72 3.5q41 0 75.5 -3.5t69.5 -7.5l-65 -368h139q0 -59 -10.5 -122t-32.5 -126h-139l-52 -287q-35 -4 -69.5 -7t-71.5 -3q-41 0 -75.5 3t-69.5 7l51 287h-676z"/>
<glyph unicode="5" d="M107 -74q10 59 26.5 123t44.5 125q72 -27 137.5 -42t139.5 -15q59 0 121.5 15t112.5 49t82 85t32 123q0 86 -59.5 132t-172.5 46q-59 0 -112 -13t-119 -42l-31 31l168 792h715q0 -61 -11.5 -121.5t-31.5 -128.5h-449l-65 -303q35 6 57.5 9.5t57.5 3.5q82 0 149.5 -27 t116.5 -75t76.5 -113.5t27.5 -141.5q0 -131 -53 -237.5t-146.5 -181t-217 -115.5t-265.5 -41q-68 0 -155.5 14t-175.5 49z"/>
<glyph unicode="6" d="M186 444q0 193 64.5 379.5t187.5 334t300 237.5t403 90h30q8 -33 12.5 -63.5t4.5 -61.5t-4 -60l-8 -57q-104 0 -197.5 -19.5t-171.5 -62.5t-137.5 -112.5t-94.5 -169.5q37 37 109 74.5t184 37.5q76 0 141.5 -23.5t113.5 -70.5t76 -118.5t28 -168.5q0 -129 -44 -244.5 t-124 -202.5t-192.5 -137.5t-250.5 -50.5q-211 0 -320.5 118t-109.5 351zM489 418q0 -98 43 -146.5t121 -48.5q66 0 117 32t86 83t53.5 113.5t18.5 123.5q0 94 -49.5 135.5t-133.5 41.5q-66 0 -113.5 -29t-79.5 -77t-47.5 -107.5t-15.5 -120.5z"/>
<glyph unicode="7" d="M250 -29l641 1114h-569q0 57 10 126t33 124h974l7 -24l-830 -1465q-47 12 -81 23.5t-64.5 26t-62 33.5t-58.5 42z"/>
<glyph unicode="8" d="M178 313q0 152 87 266.5t233 204.5q-51 37 -91 102.5t-40 153.5q0 92 41 171t109.5 136.5t159.5 90t189 32.5q174 0 281.5 -82.5t107.5 -234.5q0 -119 -64.5 -212t-176.5 -165q76 -51 127 -122.5t51 -192.5q0 -113 -47 -203t-126 -152.5t-182.5 -96.5t-215.5 -34 q-88 0 -168 18.5t-141.5 59.5t-97.5 104.5t-36 155.5zM485 367q0 -72 43 -112t125 -40q49 0 92 16.5t75 46t51.5 73.5t19.5 100q0 39 -15.5 71.5t-42 59t-59.5 48t-69 40.5q-41 -20 -80 -50t-70 -68t-50.5 -84t-19.5 -101zM647 1057q0 -35 15.5 -64.5t39 -52.5t50 -39 t49.5 -27q35 20 66.5 44t56 52.5t39 64.5t14.5 79q0 55 -34 91t-97 36q-86 0 -142.5 -51t-56.5 -133z"/>
<glyph unicode="9" d="M209 745q0 123 42 234t120 194.5t187.5 133t242.5 49.5q213 0 326.5 -115t113.5 -348q0 -119 -22.5 -242t-71.5 -238.5t-124 -218t-179 -180.5q-111 -80 -264.5 -119.5t-348.5 -39.5q-12 63 -12 131q0 59 12 118h48q215 0 368.5 86t214.5 277q-41 -37 -114.5 -74 t-196.5 -37q-72 0 -133.5 28t-108.5 79t-73.5 122.5t-26.5 159.5zM508 768q0 -96 48 -136t124 -40q63 0 114.5 27.5t85 73.5t52 104.5t18.5 120.5q0 96 -45 143t-121 47q-68 0 -119 -28.5t-86.5 -76t-53 -108.5t-17.5 -127z"/>
<glyph unicode=":" horiz-adv-x="589" d="M145 0q0 80 13.5 151.5t38.5 147.5q41 8 77.5 11t73.5 3q35 0 73 -3t75 -11q0 -80 -13.5 -151.5t-38.5 -147.5q-41 -8 -77.5 -11t-73.5 -3q-35 0 -73 3t-75 11zM279 758q0 80 13 151.5t38 147.5q41 8 77.5 11t73.5 3q35 0 73 -3t75 -11q0 -80 -13.5 -151.5t-37.5 -147.5 q-41 -8 -78 -11.5t-74 -3.5q-35 0 -72.5 3.5t-74.5 11.5z"/>
<glyph unicode=";" horiz-adv-x="593" d="M-2 -229l221 522q35 10 71 13t68.5 3t71.5 -3t72 -13l-234 -522q-37 -8 -71.5 -10.5t-67.5 -2.5t-64.5 2.5t-66.5 10.5zM301 758q0 80 13.5 151.5t37.5 147.5q41 8 78 11t74 3q35 0 72.5 -3t74.5 -11q0 -80 -13 -151.5t-38 -147.5q-41 -8 -78 -11.5t-73 -3.5 q-35 0 -73 3.5t-75 11.5z"/>
<glyph unicode="&lt;" d="M272 543q-1 15 0 29q0 141 54 276l907 334q0 -66 -10.5 -139.5t-34.5 -141.5l-656 -211l578 -229v-19q0 -56 -10 -112q-12 -66 -39 -123z"/>
<glyph unicode="=" d="M250 377q-1 15 -1 30q0 45 9 92q12 62 35 126h862q1 -14 1 -30q0 -48 -10 -101q-13 -70 -34 -117h-862zM324 799q0 61 10 121.5t35 126.5h862q0 -61 -10.5 -122t-34.5 -126h-862z"/>
<glyph unicode="&gt;" d="M225 207q0 66 10.5 139.5t34.5 140.5l656 224l-578 217v14q0 131 49 240l789 -336v-31q0 -141 -53 -274z"/>
<glyph unicode="?" horiz-adv-x="968" d="M276 1436q98 39 190.5 50t164.5 11q211 0 326.5 -88t115.5 -258q0 -84 -29.5 -162t-83 -143.5t-125 -115.5t-155.5 -81l-33 -186q-72 -12 -137 -12q-33 0 -66.5 2t-64.5 10l61 352q47 8 104.5 28.5t106.5 56.5t83 87t34 121t-52 106.5t-138 36.5q-61 0 -112.5 -10 t-127.5 -37q-27 53 -42.5 111t-19.5 121zM281 0q0 80 13 151.5t38 147.5q41 8 77.5 11t73.5 3q35 0 73 -3t75 -11q0 -80 -13.5 -151.5t-37.5 -147.5q-41 -8 -78 -11t-74 -3q-35 0 -72.5 3t-74.5 11z"/>
<glyph unicode="@" horiz-adv-x="2082" d="M211 446q0 182 66.5 368.5t203.5 337.5t349 246t503 95q156 0 294 -42t241.5 -128t164 -216t60.5 -306q0 -127 -42 -251t-117.5 -222.5t-183.5 -160t-239 -63.5q-150 0 -227 78q-61 -31 -129 -54.5t-170 -23.5q-66 0 -123 19.5t-100 61.5t-68.5 105.5t-25.5 151.5 q0 139 46 255t126 200t185 131t226 47q92 0 181.5 -13t166.5 -42l-131 -694q20 -16 68 -17q76 0 135.5 45t99 117t60 159t20.5 171q0 236 -143 360.5t-403 124.5q-201 0 -357.5 -68.5t-264.5 -184.5t-164 -266.5t-56 -311.5q0 -147 44 -252t119.5 -171.5t177 -97 t216.5 -30.5q106 0 196.5 13t163.5 42q18 -45 35 -93t29 -95q-37 -18 -88 -34t-110.5 -25t-126 -14t-132.5 -5q-158 0 -299 45t-247.5 138t-168 234t-61.5 336zM940 489q0 -92 40 -133t105 -41q41 0 71 6.5t65 16.5l88 508q-23 6 -42.5 8t-41.5 2q-68 0 -120 -30.5t-89 -81 t-56.5 -117t-19.5 -138.5z"/>
<glyph unicode="A" horiz-adv-x="1296" d="M51 0l688 1473q41 6 87 9t87 3q84 0 168 -12l181 -1473q-78 -12 -150 -12t-154 12l-26 297h-449l-131 -297q-74 -12 -153 -12q-78 0 -148 12zM594 543h315l-53 590z"/>
<glyph unicode="B" horiz-adv-x="1196" d="M162 0l258 1473q63 10 141 17t166 7q106 0 201.5 -15.5t166 -54t111.5 -104.5t41 -164q0 -68 -25.5 -131t-66.5 -113.5t-92 -84t-102 -44.5q121 -23 186 -109.5t65 -195.5q0 -139 -54 -235t-149.5 -155.5t-226.5 -87.5t-282 -28q-72 0 -149.5 5.5t-188.5 19.5zM498 225 q25 -4 47 -6t45 -2q49 0 105.5 10.5t104.5 40t79.5 81.5t31.5 136q0 92 -60 129t-165 37h-113zM612 877h95q45 0 90 15t78.5 46t55 79t21.5 113q0 45 -18.5 74t-47 44.5t-63.5 20.5t-67 5q-41 0 -74 -6z"/>
<glyph unicode="C" horiz-adv-x="1173" d="M211 541q0 199 59.5 372.5t167 304t259 205t335.5 74.5q96 0 171 -11t155 -48q-12 -63 -31.5 -118.5t-54.5 -121.5q-70 27 -122 35t-99 8q-137 0 -235.5 -59.5t-161 -154.5t-92.5 -216t-30 -244q0 -168 87.5 -249.5t248.5 -81.5q31 0 57.5 2t53.5 6t57 13l70 22 q23 -53 36 -119t17 -129q-45 -18 -96 -29.5t-99.5 -16.5t-90.5 -7.5t-66 -2.5q-150 0 -261.5 41t-186 116t-111.5 178.5t-37 230.5z"/>
<glyph unicode="D" horiz-adv-x="1404" d="M162 0l258 1470q82 10 168 18.5t182 8.5q158 0 284 -41t214 -117.5t135 -188.5t47 -253q0 -221 -69.5 -393t-194.5 -289t-298 -178.5t-378 -61.5q-117 0 -192.5 7.5t-155.5 17.5zM504 238q37 -6 102 -7q117 0 212 47.5t165 131.5t107.5 200.5t37.5 257.5q0 94 -25.5 165 t-69.5 116t-105.5 67.5t-130.5 22.5q-43 0 -65.5 -1t-51.5 -5z"/>
<glyph unicode="E" horiz-adv-x="1085" d="M162 0l258 1473h807q0 -8 1 -16.5t1 -16.5q0 -53 -12.5 -108.5t-34.5 -112.5h-508l-56 -320h404q0 -123 -45 -256h-404l-69 -389h522q0 -8 1 -15.5t1 -15.5q0 -55 -13.5 -109.5t-31.5 -113.5h-821z"/>
<glyph unicode="F" horiz-adv-x="1038" d="M162 0l258 1473h807q0 -8 1 -16.5t1 -16.5q0 -53 -12.5 -108.5t-34.5 -112.5h-508l-60 -347h404q0 -66 -11.5 -127t-33.5 -129h-404l-108 -616q-84 -12 -152 -12q-73 0 -147 12z"/>
<glyph unicode="G" horiz-adv-x="1349" d="M211 541q0 199 59.5 372.5t167 304t259 205t335.5 74.5q96 0 172 -12t154 -47q-12 -63 -31.5 -118.5t-54.5 -121.5q-63 27 -116.5 35t-104.5 8q-137 0 -234.5 -59.5t-160 -154.5t-92 -216t-29.5 -244q0 -178 87 -253.5t230 -75.5q29 0 63.5 3t53.5 7l90 514q41 8 78 11 t71.5 3t72.5 -3t75 -11l-129 -729q-90 -31 -203 -44.5t-211 -13.5q-150 0 -262.5 43t-188 119t-113.5 179.5t-38 224.5z"/>
<glyph unicode="H" horiz-adv-x="1366" d="M162 0l258 1470q78 14 151 15q35 0 73 -3t77 -12l-100 -575h444l100 575q41 8 79 11.5t73 3.5t74 -3t75 -12l-258 -1470q-80 -12 -153.5 -12t-147.5 12l111 637h-445l-110 -637q-84 -12 -154 -12q-73 0 -147 12z"/>
<glyph unicode="I" horiz-adv-x="620" d="M162 0l258 1470q78 14 151 15q35 0 73 -3t77 -12l-258 -1470q-84 -12 -154 -12q-73 0 -147 12z"/>
<glyph unicode="J" horiz-adv-x="854" d="M72 2q2 55 9 120.5t38 127.5q23 -6 59.5 -12.5t75.5 -6.5q35 0 69.5 5.5t64.5 26t52.5 60t34.5 111.5l137 785h-231q2 29 5 62.5t9 66.5q4 33 12.5 64.5t18.5 60.5h530l-190 -1082q-41 -225 -167 -320.5t-329 -95.5q-51 0 -102 7.5t-96 19.5z"/>
<glyph unicode="K" horiz-adv-x="1230" d="M162 0l260 1473q41 8 78 10t75 2q35 0 70 -2t76 -10l-260 -1473q-80 -12 -152 -12q-37 0 -71.5 3t-75.5 9zM618 741l508 732q51 10 90 11t70 1q35 0 82 -3t88 -9l-524 -732l280 -741q-47 -8 -88 -10t-69 -2q-33 0 -72 2t-86 10z"/>
<glyph unicode="L" horiz-adv-x="1001" d="M162 0l258 1473q78 14 151 14q72 0 144 -14l-213 -1215h483q0 -35 -4 -66.5l-8 -60.5q-6 -33 -14.5 -64.5l-18.5 -66.5h-778z"/>
<glyph unicode="M" horiz-adv-x="1660" d="M158 0l311 1470q84 14 162 15q39 0 71.5 -4t71.5 -11l170 -821l477 821q35 8 72 11.5t74 3.5q35 0 72.5 -3t72.5 -12l-192 -1470q-84 -12 -150 -12q-72 0 -135 12l137 965l-389 -658q-31 -4 -60.5 -7t-58 -3t-56.5 2t-56 8l-134 666l-198 -973q-72 -12 -133 -12t-129 12z "/>
<glyph unicode="N" horiz-adv-x="1363" d="M162 0l258 1473q35 8 66.5 10t60.5 2q61 0 123 -12l362 -936l162 936q74 12 145 12q33 0 64 -2t61 -10l-260 -1473q-72 -12 -125 -12q-57 0 -121 12l-364 934l-162 -934q-35 -6 -70.5 -9t-70.5 -3q-66 0 -129 12z"/>
<glyph unicode="O" horiz-adv-x="1425" d="M205 524q0 111 19.5 226.5t60.5 224t102.5 204t146 166t192.5 111.5t239 41q129 0 225 -39t158.5 -110.5t93.5 -175t31 -234.5q0 -111 -19.5 -226.5t-60.5 -222t-103.5 -200.5t-146.5 -164t-191.5 -110t-238.5 -40q-260 0 -384 145.5t-124 403.5zM516 510 q0 -285 223 -285q80 0 142.5 36t108.5 94.5t79 135t52.5 157.5t28.5 161t9 145q0 287 -221 287q-80 0 -142.5 -36t-109.5 -94t-80 -135t-52 -158t-28.5 -160.5t-9.5 -147.5z"/>
<glyph unicode="P" horiz-adv-x="1189" d="M162 0l260 1477q45 4 84 8t77 7t75.5 4t82.5 1q88 0 184.5 -16.5t176.5 -62.5t132 -130t52 -217q0 -129 -44 -239.5t-128 -191.5t-205 -126t-274 -45q-33 0 -53.5 1t-38.5 3l-82 -473q-41 -6 -78 -8t-72 -2q-31 0 -68.5 2t-80.5 8zM588 723q27 -6 92 -6q49 0 100 16.5 t94.5 55t71 102t27.5 160.5q0 59 -19.5 98t-51.5 60.5t-70.5 29.5t-75.5 8h-31q-14 0 -45 -4z"/>
<glyph unicode="Q" horiz-adv-x="1425" d="M205 524q0 111 19.5 226.5t60.5 224t102.5 204t146 166t192.5 111.5t239 41q129 0 225 -39t158.5 -110.5t93.5 -175t31 -234.5q0 -111 -19.5 -226.5t-60.5 -222t-103.5 -200.5t-146.5 -164t-191.5 -110t-238.5 -40q-260 0 -384 145.5t-124 403.5zM516 510 q0 -285 223 -285q80 0 142.5 36t108.5 94.5t79 135t52.5 157.5t28.5 161t9 145q0 287 -221 287q-80 0 -142.5 -36t-109.5 -94t-80 -135t-52 -158t-28.5 -160.5t-9.5 -147.5zM872 -274q4 53 17.5 117.5t44.5 119.5l487 -78q-2 -29 -8 -63.5t-15 -68.5t-18.5 -62.5 t-17.5 -46.5z"/>
<glyph unicode="R" horiz-adv-x="1206" d="M162 0l258 1470q86 16 158.5 21.5t148.5 5.5q104 0 202.5 -17.5t176.5 -61.5t125 -120.5t47 -193.5q0 -94 -27.5 -170t-69.5 -136.5t-91.5 -102.5t-94.5 -68l-24 -15l219 -612q-86 -12 -166 -12t-150 12l-227 684l35 21q31 18 80 43.5t96 67.5t81 101.5t34 143.5 q0 53 -18.5 89t-50.5 58.5t-72.5 31.5t-83.5 9t-70 -6l-219 -1243q-41 -4 -77 -7t-71 -3q-33 0 -71.5 2t-77.5 8z"/>
<glyph unicode="S" horiz-adv-x="1087" d="M78 47q8 61 29.5 123.5t52.5 130.5q78 -29 158.5 -49.5t156.5 -20.5q63 0 117.5 14.5t94.5 43t62.5 69.5t22.5 97q0 41 -18.5 71.5t-47 55t-67.5 46t-78 46.5q-131 78 -208 161t-77 195q0 111 39 198t111 146.5t173 91t228 31.5q113 0 195 -16.5t172 -50.5 q-8 -55 -28.5 -117t-57.5 -121q-59 29 -121.5 47t-163.5 18q-37 0 -79 -6t-75.5 -23.5t-56 -48t-22.5 -79.5q0 -70 50 -115t128 -90q70 -39 129 -78t104.5 -84t71 -101.5t25.5 -129.5q0 -104 -38 -200.5t-117 -168.5t-199.5 -115t-286.5 -43q-193 0 -379 72z"/>
<glyph unicode="T" horiz-adv-x="1124" d="M272 1219q0 63 11.5 125.5t33.5 128.5h998q0 -63 -11.5 -125t-33.5 -129h-348l-213 -1219q-84 -12 -154 -12q-74 0 -147 12l213 1219h-349z"/>
<glyph unicode="U" horiz-adv-x="1368" d="M242 412q0 102 22 233l146 828q41 8 78.5 10t74.5 2q35 0 71 -2t75 -10l-134 -764q-14 -84 -22 -149.5t-8 -119.5q0 -106 39 -156.5t137 -50.5q76 0 127 28t87 86.5t59.5 147.5t45.5 214l134 764q45 8 80.5 10t70.5 2q37 0 74 -2t76 -10l-146 -828q-29 -164 -72 -289 t-116.5 -209t-185 -128t-273.5 -44q-223 0 -331.5 103t-108.5 334z"/>
<glyph unicode="V" horiz-adv-x="1265" d="M272 1473q82 12 166 12q72 0 150 -12l94 -1158l506 1158q74 12 155 12q80 0 158 -12l-698 -1473q-92 -12 -180 -12q-41 0 -80 3t-86 9z"/>
<glyph unicode="W" horiz-adv-x="1824" d="M293 1473q74 12 160 12q41 0 77.5 -1t73.5 -11l4 -1072l424 1072q43 8 77 10t71 2q31 0 63.5 -2t67.5 -10l49 -1098l387 1098q37 8 75 10t72.5 2t73.5 -3t72 -9l-594 -1473q-39 -6 -80 -9t-78 -3q-76 0 -164 12l-53 948l-397 -948l-72 -6q-53 -6 -102 -6q-59 0 -133 12z "/>
<glyph unicode="X" horiz-adv-x="1288" d="M53 0l410 760l-133 715q43 6 85 8t81 2t71.5 -3t71.5 -9l121 -709l-371 -762q-53 -8 -99 -11t-81 -3q-37 0 -74 3t-82 9zM774 764l354 709q82 12 160 12q39 0 81 -2t83 -8l-379 -699l199 -776q-47 -6 -87 -9t-77 -3q-35 0 -72 3t-86 11z"/>
<glyph unicode="Y" horiz-adv-x="1153" d="M242 1473q88 12 166 12q37 0 73.5 -2t75.5 -10l158 -654l379 654q41 6 82 8t81 2q35 0 75 -2t79 -8l-600 -947l-92 -526q-43 -8 -81 -10t-75 -2q-35 0 -70.5 2t-74.5 10l92 526z"/>
<glyph unicode="Z" horiz-adv-x="1095" d="M47 20l787 1199h-525q0 31 2 61.5t8 62.5q12 66 35 130h951l12 -25l-782 -1194h516q2 -31 -2 -61l-9 -64q-6 -33 -14 -65.5t-18 -63.5h-951z"/>
<glyph unicode="[" horiz-adv-x="714" d="M88 -344l340 1933h477q1 -13 1 -26q0 -102 -42 -207h-194l-258 -1467h194q0 -113 -41 -233h-477z"/>
<glyph unicode="\" horiz-adv-x="1005" d="M256 1473q74 12 141 12q70 0 148 -12l471 -1471q-70 -14 -144 -14q-35 0 -70.5 3t-76.5 11z"/>
<glyph unicode="]" horiz-adv-x="702" d="M16 -344q-1 13 0 26q0 102 41 207h195l258 1467h-195q0 113 41 233h478l-340 -1933h-478z"/>
<glyph unicode="^" horiz-adv-x="1095" d="M215 743l216 365l216 362q70 12 137 13q35 0 70 -2t72 -11l89 -362l87 -365q-45 -10 -77 -12t-58 -2q-33 0 -66 2t-61 12l-105 445l-248 -447q-33 -6 -71.5 -9t-67.5 -3q-27 0 -59.5 2t-73.5 12z"/>
<glyph unicode="_" horiz-adv-x="1009" d="M-14 -205q-1 11 -1 22q0 16 2 31q3 25 7 52q4 23 9 45t15 51h967q1 -11 1 -22q0 -16 -2 -31q-3 -25 -7 -52q-6 -43 -27 -96h-964z"/>
<glyph unicode="`" horiz-adv-x="1024" d="M455 1473q41 6 78.5 9t91.5 3q100 0 184 -12l182 -252q-68 -12 -133 -13q-41 0 -78 4.5t-63 8.5z"/>
<glyph unicode="a" horiz-adv-x="1165" d="M147 289q0 154 46.5 297t137.5 253.5t226 177t315 66.5q90 0 168 -12t154 -35l-100 -577q-23 -129 -33 -228.5t-10 -154.5v-38q0 -15 2 -34q-68 -12 -133 -12q-57 0 -127 12q-4 16 -8.5 39t-4.5 68v39q0 20 4 47q-59 -94 -151 -158t-215 -64q-135 0 -203 86.5t-68 227.5z M446 360q0 -152 101 -151q98 0 182 120t123 337l31 174q-18 4 -36 5t-34 1q-98 0 -166.5 -49t-114 -123t-66 -159t-20.5 -155z"/>
<glyph unicode="b" horiz-adv-x="1204" d="M158 37l188 1063q37 215 37 325q0 23 -1 38.5t-3 33.5q35 6 80 9t78 3q59 0 131 -12q10 -31 10 -78q0 -90 -25 -219l-51 -285q25 31 54.5 61t68.5 54.5t90 38.5t119 14q143 0 220 -98t77 -285q0 -127 -37 -256t-124 -233.5t-230.5 -170t-354.5 -65.5q-96 0 -175.5 16.5 t-151.5 45.5zM481 229q16 -6 42 -9t52 -3q90 0 155 42t107 106.5t61.5 142.5t19.5 151q0 72 -30 124.5t-102 52.5q-94 0 -161.5 -80t-98.5 -264z"/>
<glyph unicode="c" horiz-adv-x="942" d="M158 401q0 121 40 243t117.5 219.5t191.5 158.5t263 61q70 0 135.5 -10t124.5 -33q-2 -53 -18.5 -113.5t-50.5 -115.5q-45 18 -89.5 28.5t-97.5 10.5q-80 0 -139.5 -36t-99 -94t-59 -134t-19.5 -158q0 -113 57 -166t145 -53q45 0 89.5 8t109.5 35q23 -37 37 -88t14 -135 q-66 -29 -139.5 -41.5t-161.5 -12.5q-233 0 -341.5 113.5t-108.5 312.5z"/>
<glyph unicode="d" horiz-adv-x="1173" d="M147 289q0 154 46.5 297t137.5 253.5t226 177t315 66.5q14 0 27.5 -1t24.5 -1q23 121 32 205t9 139q0 23 -1 38.5t-3 33.5q35 6 79.5 9t77.5 3q59 0 131 -12q10 -31 11 -78q0 -90 -25 -219l-133 -741q-23 -129 -33 -228.5t-10 -154.5v-38q0 -15 2 -34q-68 -12 -133 -12 q-57 0 -127 12q-4 16 -8.5 39t-4.5 68q0 18 1.5 42.5t5.5 51.5q-29 -47 -69 -89t-88 -73t-103.5 -49.5t-116.5 -18.5q-135 0 -203 86.5t-68 227.5zM446 360q0 -152 101 -151q98 0 182 120t123 337l31 174q-18 4 -36 5t-34 1q-98 0 -166.5 -49t-114 -123t-66 -159t-20.5 -155 z"/>
<glyph unicode="e" horiz-adv-x="1042" d="M158 410q0 125 43 245.5t121.5 216t192.5 153.5t255 58q68 0 126 -16t101 -50t68 -83t25 -115q0 -92 -43 -159.5t-115 -114.5t-163 -77t-189 -44l-138 -23q12 -98 65.5 -146t156.5 -48q82 0 144 17.5t132 45.5q33 -41 44 -99t11 -124q-35 -16 -81 -29.5t-95 -22.5 t-98 -14.5t-88 -5.5q-125 0 -214 31t-147.5 87.5t-86 137.5t-27.5 179zM453 594l106 16q78 12 127 32t78 43.5t39 48t10 48.5q0 39 -25.5 63.5t-68.5 24.5q-53 0 -97 -23.5t-77 -62.5t-56.5 -89t-35.5 -101z"/>
<glyph unicode="f" horiz-adv-x="735" d="M-211 -471q10 123 68 221q23 -8 50 -13t44 -5q39 0 73.5 11t64.5 45t53.5 93.5t39.5 155.5l144 801h-170q0 55 8 108t31 113h170l4 16q41 229 157.5 338t309.5 109q59 0 105 -6.5t93 -20.5q-14 -68 -32.5 -121t-47.5 -106q-27 8 -53.5 13t-56.5 5q-37 0 -66.5 -9 t-53.5 -31.5t-41 -63.5t-30 -105l-4 -18h223q0 -59 -8 -109.5t-30 -111.5h-224l-147 -828q-27 -150 -73 -248t-107.5 -156.5t-139 -82t-168.5 -23.5q-94 0 -186 29z"/>
<glyph unicode="g" horiz-adv-x="1169" d="M68 -463q2 35 5 63.5t9 55.5t16.5 53.5t28.5 59.5q33 -10 89 -19.5t122 -9.5q57 0 119.5 9t121 42t106.5 98.5t75 180.5l31 129q-59 -94 -153.5 -159t-217.5 -65q-135 0 -204 87.5t-69 228.5q0 154 46.5 296t137.5 252.5t227 177t316 66.5q178 0 332 -47l-180 -1013 q-29 -164 -101.5 -265.5t-169 -159t-204 -78t-207.5 -20.5t-169.5 12.5t-106.5 24.5zM446 362q0 -74 26 -113.5t77 -39.5q98 0 182 120t123 337l31 174q-18 4 -36 5t-34 1q-98 0 -167.5 -49t-114 -122t-66 -158t-21.5 -155z"/>
<glyph unicode="h" horiz-adv-x="1196" d="M152 0l194 1100q37 215 37 325q0 23 -1 38.5t-3 33.5q35 6 80 9t78 3q59 0 131 -12q10 -31 10 -78q0 -90 -25 -219l-53 -287q53 72 141 120t187 48q123 0 191.5 -62.5t68.5 -207.5q0 -31 -4 -65.5t-10 -73.5l-119 -672q-78 -12 -149.5 -12t-141.5 12l115 649q8 41 8 78 q0 61 -26.5 86t-76.5 25q-29 0 -64.5 -14.5t-72.5 -60.5t-71.5 -130t-59.5 -221l-76 -412q-39 -6 -76.5 -8t-70.5 -2q-35 0 -68.5 2t-72.5 8z"/>
<glyph unicode="i" horiz-adv-x="638" d="M199 0l147 838h-129q0 6 -1 12t-1 14q0 53 10.5 99.5t30.5 95.5h414l-187 -1059q-78 -12 -147 -12q-63 0 -137 12zM406 1237q0 11 -1 22q0 60 10 114q11 65 36 136q37 8 77.5 11.5t73.5 3.5t73 -3t75 -12q0 -72 -12.5 -137t-37.5 -135q-37 -6 -76.5 -8t-72.5 -2 q-31 0 -71.5 2t-73.5 8z"/>
<glyph unicode="j" horiz-adv-x="638" d="M-182 -432q0 92 43 170q23 -6 52.5 -10t53.5 -4q37 0 71 7t62.5 28.5t50 60.5t33.5 102l162 916h-129q0 8 -1 15t-1 15q0 47 11.5 94.5t29.5 96.5h414l-209 -1188q-35 -197 -158 -284t-303 -87q-94 0 -180 23q-2 12 -2 23v22zM408 1243q-1 16 -1 33q0 49 9 97 q12 65 37 130q41 10 80.5 15.5t70.5 5.5q29 0 68 -5.5t76 -15.5q0 -61 -10.5 -123.5t-35.5 -134.5q-41 -10 -81.5 -14t-69.5 -4q-31 0 -69.5 3t-73.5 13z"/>
<glyph unicode="k" horiz-adv-x="1105" d="M154 0l192 1100q37 215 37 325q0 23 -1 38.5t-3 33.5q35 6 80 9t78 3q59 0 131 -12q10 -31 10 -78q0 -90 -25 -219l-211 -1200q-74 -12 -149 -12q-69 0 -139 12zM582 555l215 283q59 78 79.5 133t22.5 88q43 8 81 10t79 2q37 0 79 -3t76 -9q-6 -53 -37.5 -108.5 t-91.5 -139.5l-206 -258l198 -553q-43 -4 -78.5 -7t-72.5 -3q-39 0 -74 2t-76 8z"/>
<glyph unicode="l" horiz-adv-x="663" d="M188 272q0 29 4.5 61t10.5 66l135 701q23 109 32 189.5t9 135.5q0 23 -1 38.5t-3 33.5q35 6 80 9t77 3q59 0 132 -12q10 -31 10 -78q0 -43 -8.5 -98t-20.5 -121l-158 -823q-6 -35 -6 -58q0 -33 9.5 -51t23.5 -28.5t32.5 -13.5t37.5 -3q8 0 30.5 3t40.5 10 q10 -35 17.5 -76t7.5 -84q0 -16 -1 -30.5t-3 -31.5q-31 -12 -80 -19t-109 -7q-139 0 -219 68.5t-80 215.5z"/>
<glyph unicode="m" horiz-adv-x="1767" d="M150 0l110 604q22 129 33.5 228.5t11.5 154.5v38q0 15 -2 34q68 12 135 12q31 0 61.5 -3t65.5 -9q4 -16 8.5 -39t4.5 -68q0 -18 -1.5 -36.5t-5.5 -45.5q47 88 140.5 149.5t205.5 61.5q109 0 169.5 -48t72.5 -159q49 86 143.5 146.5t204.5 60.5q123 0 186.5 -60t63.5 -202 q0 -70 -14 -147l-119 -672q-78 -12 -149.5 -12t-141.5 12l115 649q8 47 8 88q0 55 -22.5 78t-69.5 23q-29 0 -62.5 -14.5t-68.5 -55.5t-65.5 -112.5t-51.5 -186.5l-82 -469q-78 -12 -149.5 -12t-141.5 12l115 649q8 47 8 88q0 55 -22.5 78t-69.5 23q-29 0 -63.5 -14.5 t-69.5 -60.5t-67.5 -130t-57.5 -221l-76 -412q-80 -12 -149 -12q-71 0 -141 12z"/>
<glyph unicode="n" horiz-adv-x="1198" d="M150 0l110 604q23 129 34 228.5t11 154.5v38q0 15 -2 34q68 12 135 12q31 0 61.5 -3t65.5 -9q4 -16 8.5 -39t4.5 -68q0 -18 -1.5 -36.5t-5.5 -45.5q25 43 62 82t84 68t101 45t110 16q123 0 191.5 -62.5t68.5 -207.5q0 -31 -4 -65.5t-10 -73.5l-119 -672 q-78 -12 -149.5 -12t-141.5 12l115 649q8 41 8 78q0 61 -26.5 86t-76.5 25q-29 0 -64.5 -14.5t-72.5 -60.5t-71.5 -130t-59.5 -221l-76 -412q-80 -12 -149 -12q-71 0 -141 12z"/>
<glyph unicode="o" horiz-adv-x="1142" d="M160 389q0 123 36.5 247t110.5 223t185.5 161.5t261.5 62.5q213 0 312 -112.5t99 -304.5q0 -127 -35.5 -250t-109.5 -221.5t-186.5 -159t-264.5 -60.5q-211 0 -310 110.5t-99 303.5zM451 379q0 -182 145 -182q78 0 131 49t87 121.5t48.5 153.5t14.5 147q0 188 -154 188 q-78 0 -129 -51t-84 -125t-46 -156t-13 -145z"/>
<glyph unicode="p" horiz-adv-x="1204" d="M66 -483l192 1087q23 129 34 228.5t11 154.5v38q0 15 -2 34q68 12 135 12q57 0 129 -12q4 -16 8.5 -39t4.5 -68q0 -18 -1.5 -34.5t-5.5 -40.5q47 88 143.5 147t219.5 59q143 0 220 -98t77 -285q0 -127 -39 -256t-124 -233.5t-220 -170t-330 -65.5q-35 0 -52 2.5t-28 4.5 l-82 -465q-41 -8 -77.5 -10.5t-69.5 -2.5q-35 0 -69.5 2.5t-73.5 10.5zM481 227q16 -6 42 -8t52 -2q90 0 155 42t107 106.5t61.5 142.5t19.5 151q0 72 -30 124.5t-102 52.5q-94 0 -161.5 -80t-98.5 -264z"/>
<glyph unicode="q" horiz-adv-x="1163" d="M154 293q0 154 46 296t137 251.5t226 176t316 66.5q90 0 167.5 -12t153.5 -35l-266 -1519q-41 -8 -76 -10.5t-70 -2.5q-33 0 -67.5 2t-73.5 11l109 628q-59 -76 -143.5 -123t-188.5 -47q-135 0 -202.5 88.5t-67.5 229.5zM453 365q0 -74 24.5 -115t75.5 -41q98 0 181 120 t122 337l31 174q-18 4 -34.5 5t-33.5 1q-98 0 -166.5 -49t-113.5 -121t-65.5 -156.5t-20.5 -154.5z"/>
<glyph unicode="r" horiz-adv-x="806" d="M150 0l110 604q23 129 34 228.5t11 154.5v38q0 15 -2 34q68 12 135 12q31 0 61.5 -3t65.5 -9q4 -16 8.5 -39t4.5 -68q0 -18 -1.5 -36.5t-5.5 -45.5q20 37 51 73t69 64.5t84 46t102 17.5q43 0 73 -10q2 -8 2 -17v-18q0 -57 -14 -118.5t-39 -102.5q-12 2 -26.5 4t-36.5 2 q-84 0 -138.5 -28.5t-89.5 -81t-55.5 -126t-36.5 -163.5l-76 -412q-80 -12 -149 -12q-71 0 -141 12z"/>
<glyph unicode="s" horiz-adv-x="911" d="M84 29q6 119 61 221q63 -29 130 -40t128 -11q31 0 66 6t63.5 20.5t48 40t19.5 62.5q0 41 -28.5 66.5t-79.5 45.5l-66 27q-33 12 -65.5 31.5t-60.5 49.5t-45 73t-17 102q0 86 33.5 152.5t94 112.5t141.5 70.5t175 24.5q33 0 72 -3t78.5 -9t77.5 -17.5t69 -27.5 q-4 -53 -19.5 -105.5t-50.5 -105.5q-43 23 -104.5 37t-116.5 14q-23 0 -50.5 -4t-52 -14t-41 -30.5t-16.5 -51.5q0 -61 78 -96l80 -35q39 -16 76 -38t65.5 -52.5t46 -71.5t17.5 -96q0 -102 -41 -177t-110.5 -125t-165 -75t-201.5 -25q-66 0 -146 13.5t-143 40.5z"/>
<glyph unicode="t" horiz-adv-x="780" d="M162 838q0 55 8 108t31 113h157l13 61q10 51 12 97.5t2 76.5q53 35 133 49.5t148 14.5q10 -31 10 -78q0 -33 -5 -71t-14 -83l-12 -67h254q0 -61 -10 -112.5t-29 -108.5h-254l-71 -404l-7.5 -53.5t-3.5 -46.5q0 -53 24.5 -84t92.5 -31q35 0 61.5 5t49.5 12q27 -59 26 -156 v-33q0 -16 -2 -33q-88 -27 -211 -26q-172 0 -255 63.5t-83 212.5q0 31 4.5 63.5t10.5 71.5l77 439h-157z"/>
<glyph unicode="u" horiz-adv-x="1198" d="M197 248q0 31 4 65.5t10 73.5l119 672q39 6 76.5 9t72.5 3q70 0 142 -12l-115 -649q-8 -41 -8 -78q0 -61 26.5 -86t75.5 -25q29 0 64.5 14.5t72.5 60.5t72 129t59 222l76 412q80 12 149.5 12t141.5 -12l-111 -604q-23 -129 -34 -228.5t-11 -154.5v-38q0 -15 2 -34 q-68 -12 -135 -12q-57 0 -127 12q-4 16 -8 38.5t-4 67.5q0 18 1 37t5 45q-25 -43 -61.5 -81.5t-83.5 -67.5t-101.5 -45.5t-109.5 -16.5q-123 0 -191.5 63t-68.5 208z"/>
<glyph unicode="v" horiz-adv-x="1087" d="M188 1059q76 12 152 12q82 0 160 -12l80 -776l231 499q45 96 56.5 154.5t11.5 99.5v23q35 6 76.5 9t86.5 3q92 0 164 -12v-10q0 -49 -24.5 -116t-83.5 -175l-414 -758q-41 -6 -84 -8t-71.5 -2t-77 1t-82.5 9z"/>
<glyph unicode="w" horiz-adv-x="1650" d="M199 1059q80 12 168 12q35 0 70.5 -2t70.5 -10l29 -735l305 735q63 12 138.5 12t149.5 -12l58 -737l198 460q35 80 47.5 141.5t12.5 102.5q0 10 -1 18.5t-1 14.5q68 12 155 12q84 0 156 -12v-8q0 -66 -22.5 -137.5t-73.5 -170.5l-381 -743q-37 -6 -83 -9t-87 -3 q-74 0 -141 12l-60 674l-289 -674l-81.5 -8t-83.5 -4q-35 0 -74 3t-72 9z"/>
<glyph unicode="x" horiz-adv-x="1093" d="M47 0q4 47 20.5 90t53.5 100l229 355l-119 514q70 12 148 12q39 0 68.5 -3t68.5 -9l111 -514l-213 -363q-35 -59 -50.5 -97t-19.5 -83q-55 -10 -95 -11t-63 -1q-29 0 -57.5 1t-81.5 9zM641 545l190 321q35 57 43.5 105.5t10.5 89.5q55 10 89 10h58q33 0 64.5 -2t68.5 -8 q0 -39 -9 -96.5t-54 -126.5l-185 -281l130 -557q-84 -12 -154 -12q-74 0 -143 12z"/>
<glyph unicode="y" horiz-adv-x="1110" d="M55 -475q4 59 16.5 112.5t41.5 102.5q18 -8 43.5 -13.5t44.5 -5.5q25 0 57.5 5.5t70.5 31t80 77.5t85 145l10 22q-23 -4 -49.5 -5t-55.5 -1h-47q-27 0 -47 4l-96 1059q76 12 158 12q72 0 143 -12l55 -926l134 292l92 213q37 89 56 148.5t29.5 100.5t12.5 68.5t2 52.5 q0 20 -2 30l-4 21q35 6 73.5 9t79.5 3q82 0 154 -12q6 -18 6 -43q0 -35 -9 -77t-22.5 -84t-28.5 -81l-28 -69q-53 -127 -148 -325l-245 -501q-63 -127 -125 -202.5t-125.5 -114.5t-127 -50.5t-128.5 -11.5q-47 0 -81 6.5t-75 18.5z"/>
<glyph unicode="z" horiz-adv-x="958" d="M35 25l606 811h-397q0 31 3 59.5t7 56.5q4 27 11 52.5t20 54.5h800l7 -25l-609 -811h457q0 -31 -3 -59.5t-7 -57.5q-4 -27 -11.5 -52t-17.5 -54h-854z"/>
<glyph unicode="{" horiz-adv-x="790" d="M190 623l9 49q57 25 96 54.5t65.5 67t45 87t32.5 114.5l29 179q25 106 57.5 189t86 138t134 84t199.5 29q45 0 72 -8q0 -53 -14.5 -114.5t-30.5 -109.5q-10 2 -19 2h-16q-57 0 -93 -17t-57.5 -51t-33 -83t-23.5 -115q-23 -123 -44 -206t-49 -138t-63.5 -88t-85.5 -55 q53 -29 82 -79t29 -149q0 -31 -9 -82l-20 -111l-19 -115q-9 -56 -9 -95q0 -59 29.5 -87t107.5 -28h29q0 -55 -8.5 -107t-28.5 -112q-20 -4 -40 -4h-38q-174 0 -251 74t-77 217q0 35 4 76t11 82l32 188q4 23 6 46.5t2 45.5q0 70 -27.5 128.5t-101.5 103.5z"/>
<glyph unicode="|" horiz-adv-x="692" d="M143 -344l340 1931q70 14 142 15q76 0 139 -15l-340 -1931q-74 -12 -141 -12q-72 0 -140 12z"/>
<glyph unicode="}" horiz-adv-x="772" d="M2 -319q0 53 14.5 114.5t30.5 108.5q10 -2 19 -2h16q57 0 92 17.5t56.5 51t33.5 82.5t25 115q20 123 42.5 206t50.5 138t63.5 88t84.5 55q-53 29 -81.5 79t-28.5 149q0 31 9 83l20 110l19 114q9 55 9 96q0 59 -29.5 87t-107.5 28h-29q0 55 8.5 107.5t28.5 111.5 q20 4 40 4h38q174 0 251 -73.5t77 -217.5q0 -35 -4.5 -75.5t-10.5 -81.5l-32 -189q-4 -23 -6.5 -46t-2.5 -46q0 -70 28 -128t101 -103l-8 -50q-57 -25 -96 -54.5t-65.5 -67t-45 -87t-32.5 -114.5l-29 -178q-25 -109 -57.5 -191t-86 -137t-134 -84t-199.5 -29q-45 1 -72 9z "/>
<glyph unicode="~" horiz-adv-x="1046" d="M205 864q23 20 57.5 42t77.5 40.5t89 29.5t89 11q55 0 96 -13t78 -28.5t76 -28t92 -12.5q35 0 72 15.5t82 54.5q37 -41 62.5 -79t51.5 -103q-25 -25 -60.5 -46.5t-77.5 -37t-88 -24.5t-89 -9q-49 0 -89 12t-77 27.5t-77 29t-89 13.5q-80 0 -164 -70l-65 84q-31 41 -47 92 z"/>
<glyph unicode="¡" horiz-adv-x="612" d="M76 -418l200 1002q76 12 140 12q70 0 137 -12l-162 -1002q-43 -8 -82 -10t-78 -2q-37 0 -76.5 2t-78.5 10zM297 756q0 80 13.5 151.5t37.5 147.5q41 8 78 11t74 3q35 0 72.5 -3t74.5 -11q0 -80 -13 -152t-38 -147q-41 -8 -78 -11.5t-74 -3.5q-35 0 -72.5 3.5t-74.5 11.5z "/>
<glyph unicode="¢" d="M307 401q0 113 35 225.5t101.5 208t166 161t228.5 81.5l39 223q45 12 92 13q43 0 86 -13l-39 -223q88 -10 164 -37q-2 -53 -18.5 -113.5t-51.5 -115.5q-45 18 -90 28.5t-102 10.5q-78 0 -136.5 -40t-97.5 -101.5t-58.5 -136t-19.5 -144.5q0 -113 57.5 -166t145.5 -53 q45 0 89 8t110 35q23 -37 37 -88t14 -135q-102 -45 -238 -52l-37 -219q-47 -12 -90 -12q-45 0 -88 12l39 226q-174 27 -256 135t-82 282z"/>
<glyph unicode="£" d="M160 29l30 22q59 45 106.5 105.5t79.5 131t48 147.5t16 155h-192q0 106 39 221h149q-6 55 -6 104q0 119 33 221.5t100.5 177.5t170 117t241.5 42q123 0 209 -24t151 -52q-10 -47 -34.5 -105.5t-67.5 -124.5q-53 23 -115.5 42.5t-152.5 19.5q-127 0 -181.5 -77t-54.5 -224 q0 -27 1 -57.5t5 -59.5h322q4 -53 -7.5 -110.5t-31.5 -110.5h-281q0 -86 -30.5 -170t-79.5 -162h528q0 -35 -4 -66.5l-8 -60.5q-6 -33 -14.5 -64.5l-18.5 -66.5h-946z"/>
<glyph unicode="¤" d="M199 334l143 143q-59 100 -59 223q0 125 63 228l-147 149q27 57 67.5 95t95.5 69l152 -151q102 57 223 57q119 0 221 -57l150 151q47 -31 90 -69.5t72 -92.5l-146 -143q70 -109 70 -236q0 -63 -17.5 -121.5t-48.5 -107.5l142 -139q-31 -47 -71 -90t-91 -72l-143 145 q-102 -59 -228 -59q-129 0 -231 59l-144 -145q-57 27 -94.5 69t-68.5 95zM530 700q0 -45 16.5 -83.5t44 -68.5t65.5 -47.5t81 -17.5q45 0 83 17.5t65.5 47.5t44 68.5t16.5 83.5t-16.5 86t-44 71t-65.5 47.5t-83 17.5q-43 0 -81 -17.5t-65.5 -47.5t-44 -71t-16.5 -86z"/>
<glyph unicode="¥" d="M164 319q-1 13 -1 26q0 30 6 64q9 48 26 85h340l24 143h-340q0 94 31 174h237l-204 637q88 12 174 12q39 0 69.5 -3t67.5 -9l151 -561l351 561q41 6 85 9t83 3t71.5 -3t73.5 -9l-416 -637h269q2 -15 2 -31q0 -27 -7 -59q-10 -51 -26 -84h-375l-25 -143h375 q0 -86 -30 -175h-375l-58 -321q-41 -6 -77.5 -8t-73.5 -2q-35 0 -71 2t-75 8l58 321h-340z"/>
<glyph unicode="¦" horiz-adv-x="694" d="M143 -344l121 686q74 12 142 12q72 0 139 -12l-121 -686q-74 -12 -141 -12q-72 0 -140 12zM362 903l121 686q74 12 142 13q72 0 139 -13l-121 -686q-72 -12 -141.5 -12t-139.5 12z"/>
<glyph unicode="§" horiz-adv-x="1187" d="M190 33q12 53 43 111.5t60 101.5q47 -23 113.5 -38t128.5 -15q27 0 68.5 2t79.5 12t65.5 34.5t27.5 67.5q0 31 -22.5 44.5t-69.5 29.5l-207 70q-102 35 -141 95t-39 130q0 88 48 155.5t120 133.5q-20 25 -30.5 55.5t-10.5 71.5q0 92 41 163.5t108.5 118.5t153.5 72 t178 25q104 0 181 -14.5t153 -43.5q-12 -53 -42 -111.5t-62 -101.5q-47 23 -104.5 38t-119.5 15q-27 0 -61.5 -3t-66 -13t-53 -31.5t-21.5 -60.5q0 -33 22.5 -49.5t69.5 -32.5l209 -68q104 -35 140 -93t36 -122q0 -92 -45 -167.5t-123 -141.5q20 -23 31.5 -53.5t11.5 -71.5 q0 -96 -48 -165.5t-123 -116t-168 -69t-183 -22.5q-104 0 -188.5 14.5t-160.5 43.5zM547 729q0 -61 90 -88l201 -61q31 25 63.5 59.5t32.5 81.5q0 31 -23.5 55.5t-87.5 42.5l-186 53q-33 -25 -61.5 -60.5t-28.5 -82.5z"/>
<glyph unicode="¨" horiz-adv-x="1024" d="M332 1214q2 64 11 123.5t32 118.5q33 6 68.5 9t64.5 3t64.5 -3t66.5 -9q-2 -63 -11.5 -122.5t-31.5 -119.5q-35 -6 -69.5 -8t-65.5 -2q-27 0 -63.5 2t-65.5 8zM784 1214v22q0 52 9 101q10 59 34 119q33 6 69 9t64.5 3t64.5 -3t67 -9q-4 -61 -13.5 -120.5t-29.5 -121.5 q-35 -6 -71 -8t-64.5 -2t-64.5 2t-65 8z"/>
<glyph unicode="©" horiz-adv-x="1683" d="M205 735q0 162 55 302.5t154.5 241.5t240 159.5t310.5 58.5t310 -57.5t239.5 -159.5t154.5 -241.5t55 -303.5t-55 -303t-154.5 -240.5t-239.5 -160t-310 -58.5t-310.5 58.5t-240 160t-154.5 240.5t-55 303zM369 735q0 -129 41 -240.5t117.5 -193.5t187 -129t250 -47 t250 47t187.5 129t118 193.5t41 240.5t-41 240.5t-118 193.5t-187.5 129.5t-250 47.5t-250 -47.5t-187 -129.5t-117.5 -193.5t-41 -240.5zM602 737q0 84 25.5 161t75 135.5t121 93t163.5 34.5q70 0 116 -8t105 -31q0 -41 -8 -92t-29 -92q-49 16 -81.5 21.5t-73.5 5.5 q-90 0 -139.5 -58.5t-49.5 -169.5q0 -117 52.5 -172t136.5 -55q47 0 77.5 4t82.5 25q20 -33 31.5 -82t11.5 -103q-59 -23 -111.5 -30t-112.5 -7q-96 0 -169.5 34t-123 90.5t-75 133t-25.5 162.5z"/>
<glyph unicode="ª" horiz-adv-x="1024" d="M254 842q0 119 38 232.5t111.5 201.5t183 141t255.5 53q72 0 141.5 -9t128.5 -27l-80 -455q-16 -102 -24.5 -180t-8.5 -121v-29q0 -12 2 -28q-29 -4 -62.5 -6.5t-58 -2.5t-48 2t-52.5 7q-4 12 -7 30.5t-3 53.5v31q0 15 4 36q-47 -74 -118.5 -124t-170.5 -50 q-117 0 -174 65.5t-57 178.5zM508 901q0 -119 78 -119t146.5 100.5t96.5 272.5l21 123q-14 4 -27.5 5t-25.5 1q-78 0 -132.5 -39t-89 -96t-51 -125t-16.5 -123z"/>
<glyph unicode="«" horiz-adv-x="1329" d="M178 551l430 448q63 12 140 13q41 0 89 -3t89 -10l-437 -467l256 -442q-80 -12 -163 -12q-72 0 -136 12zM725 551l430 448q63 12 139 13q41 0 89.5 -3t89.5 -10l-437 -467l256 -442q-80 -12 -164 -12q-72 0 -135 12z"/>
<glyph unicode="¬" d="M256 723q0 66 12 127h875v-590q-61 -12 -125 -12q-66 0 -127 12v338h-623q-12 62 -12 125z"/>
<glyph unicode="­" horiz-adv-x="749" d="M207 475q0 61 11 122.5t32 129.5h512v-18q0 -55 -10 -110q-12 -65 -33 -124h-512z"/>
<glyph unicode="®" horiz-adv-x="1683" d="M205 735q0 162 55 302.5t154.5 241.5t240 159.5t310.5 58.5t310 -57.5t239.5 -159.5t154.5 -241.5t55 -303.5t-55 -303t-154.5 -240.5t-239.5 -160t-310 -58.5t-310.5 58.5t-240 160t-154.5 240.5t-55 303zM369 735q0 -129 41 -240.5t117.5 -193.5t187 -129t250 -47 t250 47t187.5 129t118 193.5t41 240.5t-41 240.5t-118 193.5t-187.5 129.5t-250 47.5t-250 -47.5t-187 -129.5t-117.5 -193.5t-41 -240.5zM690 360v783q57 10 110.5 15t119.5 5q195 0 278.5 -68.5t83.5 -181.5q0 -70 -27.5 -124t-62.5 -82l-31 -25l180 -320q-29 -4 -60.5 -6 t-66.5 -2q-29 0 -54 2t-50 6l-184 359l32 20q47 29 78 63t31 83q0 47 -28.5 76.5t-90.5 29.5q-14 0 -25.5 -1t-31.5 -5v-627q-41 -8 -96 -8q-25 0 -51.5 2t-53.5 6z"/>
<glyph unicode="¯" horiz-adv-x="1024" d="M409 1292q1 25 5 51q8 51 30 105h543l2 -35q0 -8 -1 -16q-1 -25 -5 -51q-10 -53 -31 -105h-542l-2 35q1 8 1 16z"/>
<glyph unicode="°" horiz-adv-x="772" d="M225 1177.5q0 63.5 24.5 121t65.5 98.5t97.5 65.5t120 24.5t121 -24.5t99.5 -65.5t66.5 -98.5t24.5 -121t-24.5 -118.5t-66.5 -97t-99.5 -66t-121 -24t-120 24t-97.5 66t-65.5 97t-24.5 118.5zM406 1177.5q0 -59.5 36.5 -96.5t90 -37t92.5 37t39 96.5t-39 98.5t-92.5 39 t-90 -39t-36.5 -98.5z"/>
<glyph unicode="±" d="M201 0q0 68 10 125t33 123h284l62 352h-318q0 119 43 248h318l65 362q61 12 129 13q66 0 127 -13l-65 -362h317q1 -15 1 -30q0 -45 -9 -92q-12 -62 -35 -126h-317l-62 -352h334q1 -15 1 -31q0 -47 -9 -96q-12 -66 -35 -121h-874z"/>
<glyph unicode="²" horiz-adv-x="921" d="M203 662l313 301q57 55 105.5 109t48.5 112q0 92 -97 92q-47 0 -92 -13.5t-92 -35.5q-16 35 -31.5 79t-19.5 95q59 29 139 50.5t158 21.5q137 0 211 -67t74 -171q0 -59 -16.5 -105.5t-45.5 -88.5t-67 -79l-84 -81l-66 -62h246q0 -47 -8.5 -97t-26.5 -97h-641z"/>
<glyph unicode="³" horiz-adv-x="921" d="M242 653q8 47 30.5 91t51.5 77q53 -18 94 -29.5t94 -11.5q31 0 61.5 7.5t55 22.5t39 37.5t14.5 53.5q0 47 -34 67.5t-79 20.5q-12 0 -33.5 -2t-56.5 -12l-35 45l226 244h-279q0 47 7.5 92t23.5 92h541l14 -41l-238 -285q86 -14 130 -68.5t44 -133.5q0 -74 -31.5 -133.5 t-87 -100.5t-128 -62.5t-154.5 -21.5q-86 0 -151.5 14t-118.5 37z"/>
<glyph unicode="´" horiz-adv-x="1024" d="M455 1221l209 252q82 12 184 12q53 0 91 -3t79 -9l-289 -252q-27 -4 -63.5 -8.5t-77.5 -4.5q-65 1 -133 13z"/>
<glyph unicode="µ" horiz-adv-x="1193" d="M39 -485l272 1544q70 12 144 12q72 0 143 -12l-100 -551l-14 -79q-7 -44 -7 -79q0 -78 38 -113.5t114 -35.5q88 0 137 63.5t72 179.5l110 615q68 12 144 12q72 0 143 -12l-191 -1061q-23 -4 -44 -7t-56 -3q-33 0 -64.5 3t-56.5 9q-3 25 -3 53v15q1 37 5 65 q-51 -84 -115.5 -121t-142.5 -37q-55 0 -96 19.5t-59 46.5l-90 -526q-39 -6 -75 -8.5t-71 -2.5q-37 0 -69.5 2.5t-67.5 8.5z"/>
<glyph unicode="¶" horiz-adv-x="1261" d="M276 987q0 147 61.5 243.5t164 154t233.5 79.5q120 21 249 21h24l-252 -1495q-29 0 -59.5 1t-59.5 3t-51.5 5t-32.5 7l106 635q-76 6 -145.5 26.5t-121.5 61.5t-84 103.5t-32 154.5zM891 -12l252 1497q63 0 122.5 -3t82.5 -12l-246 -1468q-27 -8 -86 -11t-125 -3z"/>
<glyph unicode="·" horiz-adv-x="591" d="M233 438q0 80 13.5 152t38.5 147q41 8 77.5 11.5t73.5 3.5q35 0 73 -3.5t75 -11.5q0 -80 -13.5 -151.5t-38.5 -147.5q-41 -8 -77.5 -11t-73.5 -3q-35 0 -73 3t-75 11z"/>
<glyph unicode="¸" horiz-adv-x="1024" d="M246 -457q8 33 21.5 67t35.5 64q35 -10 65.5 -17t61.5 -7q14 0 35.5 2t40 8t32 19.5t13.5 35.5q0 35 -27.5 47.5t-74.5 12.5q-29 0 -61 -4t-60 -15l-13 15l146 278h137l-86 -158q16 4 49 5q80 0 127 -43t47 -123q0 -66 -27.5 -109t-71.5 -68.5t-100.5 -36t-111.5 -10.5 q-59 0 -109.5 11.5t-68.5 25.5z"/>
<glyph unicode="¹" horiz-adv-x="921" d="M293 625l-2 33q0 33 6 66q8 50 31 93h164l63 363l-154 -58q-29 41 -45 82t-22 94l409 160h84l-110 -641h174q1 -14 1 -30q0 -34 -6 -71q-9 -54 -30 -91h-563z"/>
<glyph unicode="º" horiz-adv-x="1024" d="M274 924q0 94 29 191t88.5 176t149.5 128t215 49q174 0 255 -88t81 -241q0 -98 -29 -195.5t-88.5 -174.5t-149.5 -125t-215 -48q-174 0 -255 87t-81 241zM524 915q0 -135 107 -135q59 0 100 38t65.5 93.5t36 118t11.5 111.5q0 139 -113 139q-59 0 -98 -39t-63.5 -95 t-35 -120t-10.5 -111z"/>
<glyph unicode="»" horiz-adv-x="1345" d="M72 90l442 479l-262 430q80 12 164 13q70 0 135 -13l270 -471l-424 -438q-33 -6 -72.5 -9t-74.5 -3q-41 0 -89 3t-89 9zM616 90l443 479l-262 430q80 12 164 13q70 0 135 -13l270 -471l-424 -438q-33 -6 -73 -9t-74 -3q-41 0 -89.5 3t-89.5 9z"/>
<glyph unicode="¼" horiz-adv-x="2150" d="M293 625l-2 33q0 33 6 66q8 50 31 93h164l63 363l-154 -58q-29 41 -45 82t-22 94l409 160h84l-110 -641h174q1 -14 1 -30q0 -34 -6 -71q-9 -54 -30 -91h-563zM618 4l990 1448q70 12 143 12q63 0 141 -12l-991 -1448q-72 -12 -137 -12q-70 0 -146 12zM1329 188l432 668 q51 -6 102.5 -27.5t86.5 -50.5l-314 -463h156l29 160q23 4 42 5t52 1q59 0 102 -6l-26 -160h84v-18q0 -32 -5 -64q-7 -41 -22 -81h-84l-25 -150q-27 -4 -48 -6t-52 -2q-59 0 -98 8l24 150h-422z"/>
<glyph unicode="½" horiz-adv-x="2150" d="M293 625l-2 33q0 33 6 66q8 50 31 93h164l63 363l-154 -58q-29 41 -45 82t-22 94l409 160h84l-110 -641h174q1 -14 1 -30q0 -34 -6 -71q-9 -54 -30 -91h-563zM584 4l989 1448q70 12 143 12q63 0 142 -12l-992 -1448q-72 -12 -137 -12q-69 0 -145 12zM1397 39l313 301 q57 55 105.5 109.5t48.5 111.5q0 92 -97 92q-47 0 -92 -13t-92 -36q-16 35 -31.5 79t-19.5 95q59 29 139 50.5t158 21.5q137 0 211 -66.5t74 -171.5q0 -59 -16.5 -105t-45.5 -88t-67 -80l-84 -81l-66 -61h246q0 -47 -8.5 -97.5t-26.5 -97.5h-641z"/>
<glyph unicode="¾" horiz-adv-x="2150" d="M242 653q8 47 30.5 91t51.5 77q53 -18 94 -29.5t94 -11.5q31 0 61.5 7.5t55 22.5t39 37.5t14.5 53.5q0 47 -34 67.5t-79 20.5q-12 0 -33.5 -2t-56.5 -12l-35 45l226 244h-279q0 47 7.5 92t23.5 92h541l14 -41l-238 -285q86 -14 130 -68.5t44 -133.5q0 -74 -31.5 -133.5 t-87 -100.5t-128 -62.5t-154.5 -21.5q-86 0 -151.5 14t-118.5 37zM555 4l989 1448q70 12 144 12q63 0 141 -12l-991 -1448q-72 -12 -138 -12q-69 0 -145 12zM1284 188l432 668q51 -6 102.5 -27.5t86.5 -50.5l-314 -463h156l29 160q23 4 42 5t52 1q59 0 102 -6l-26 -160h84 v-18q0 -32 -6 -64q-7 -41 -21 -81h-84l-25 -150q-27 -4 -48 -6t-52 -2q-59 0 -98 8l24 150h-422z"/>
<glyph unicode="¿" horiz-adv-x="907" d="M78 -94q0 84 29.5 161.5t83 143t125 116t155.5 81.5l33 186q70 12 137 12q33 0 66.5 -2t64.5 -10l-61 -352q-47 -8 -104.5 -28.5t-106.5 -56.5t-83 -87.5t-34 -121t52 -106.5t138 -37q61 0 112.5 10.5t127.5 37.5q27 -53 42 -110.5t20 -121.5q-98 -39 -190.5 -50 t-164.5 -11q-211 0 -326.5 88t-115.5 258zM520 758q0 80 13.5 151.5t37.5 147.5q41 8 78 11t74 3q35 0 73 -3t74 -11q0 -80 -13 -151.5t-38 -147.5q-41 -8 -77.5 -11.5t-73.5 -3.5q-35 0 -73 3.5t-75 11.5z"/>
<glyph unicode="À" horiz-adv-x="1296" d="M51 0l688 1473q41 6 87 9t87 3q84 0 168 -12l181 -1473q-78 -12 -150 -12t-154 12l-26 297h-449l-131 -297q-74 -12 -153 -12q-78 0 -148 12zM565 1829q10 2 31.5 3t49.5 3t57.5 3t56.5 1q47 0 93 -3t71 -7l180 -238q-16 -4 -56 -8t-81 -4t-76 2t-55 6zM594 543h315 l-53 590z"/>
<glyph unicode="Á" horiz-adv-x="1296" d="M51 0l688 1473q41 6 87 9t87 3q84 0 168 -12l181 -1473q-78 -12 -150 -12t-154 12l-26 297h-449l-131 -297q-74 -12 -153 -12q-78 0 -148 12zM594 543h315l-53 590zM721 1591l227 219q25 4 71 7.5t93 3.5q53 0 105.5 -3t74.5 -8l-291 -221q-20 -4 -59 -6t-80 -2t-83 3 t-58 7z"/>
<glyph unicode="Â" horiz-adv-x="1296" d="M51 0l688 1473q41 6 87 9t87 3q84 0 168 -12l181 -1473q-78 -12 -150 -12t-154 12l-26 297h-449l-131 -297q-74 -12 -153 -12q-78 0 -148 12zM584 1599l245 224q35 4 82 7t90 3q27 0 69 -2t81 -10l156 -222q-49 -12 -127 -12q-35 0 -75 3t-73 12l-61 100l-105 -100 q-29 -8 -68.5 -11.5t-76.5 -3.5q-82 0 -137 12zM594 543h315l-53 590z"/>
<glyph unicode="Ã" horiz-adv-x="1296" d="M51 0l688 1473q41 6 87 9t87 3q84 0 168 -12l181 -1473q-78 -12 -150 -12t-154 12l-26 297h-449l-131 -297q-74 -12 -153 -12q-78 0 -148 12zM582 1741q41 45 106.5 79.5t140.5 34.5q39 0 73 -11t66.5 -24.5t67.5 -24.5t74 -11q35 0 66.5 9t78.5 48q25 -29 46.5 -70.5 t25.5 -80.5q-43 -45 -108.5 -78t-141.5 -33q-39 0 -73.5 11.5t-68.5 24.5t-67.5 24.5t-70.5 11.5q-39 0 -68 -11.5t-76 -46.5q-23 25 -45 67t-26 81zM594 543h315l-53 590z"/>
<glyph unicode="Ä" horiz-adv-x="1296" d="M51 0l688 1473q41 6 87 9t87 3q84 0 168 -12l181 -1473q-78 -12 -150 -12t-154 12l-26 297h-449l-131 -297q-74 -12 -153 -12q-78 0 -148 12zM559 1591q2 63 11.5 123t31.5 119q33 6 69 9t64.5 3t64.5 -3t66 -9q-2 -63 -11 -122.5t-32 -119.5q-35 -6 -69.5 -8t-65.5 -2 q-27 0 -63.5 2t-65.5 8zM594 543h315l-53 590zM1012 1591q0 11 -1 21q0 52 9 102q10 59 35 119q33 6 68.5 9t64.5 3t64.5 -3t66.5 -9q-4 -61 -13.5 -120.5t-29.5 -121.5q-35 -6 -71 -8t-64.5 -2t-64 2t-64.5 8z"/>
<glyph unicode="Å" horiz-adv-x="1325" d="M57 0l688 1473q-29 29 -48 70.5t-19 88.5q0 61 21.5 112.5t58.5 90.5t89 60.5t114 21.5q111 0 172 -65.5t61 -161.5q0 -70 -30.5 -127.5t-76.5 -94.5l181 -1468q-78 -12 -149.5 -12t-153.5 12l-27 297h-449l-131 -297q-74 -12 -153 -12q-78 0 -148 12zM600 543h315 l-51 606zM836 1649q0 -47 19 -79t67 -32q53 0 82.5 42t29.5 97q0 47 -18.5 79t-65.5 32q-55 0 -84.5 -40t-29.5 -99z"/>
<glyph unicode="Æ" horiz-adv-x="1869" d="M0 0l987 1473h1024q0 -8 1 -16.5t1 -16.5q0 -53 -12 -108.5t-35 -112.5h-508l-55 -320h403q0 -123 -45 -256h-403l-70 -389h522q0 -8 1 -15.5t1 -15.5q0 -55 -13 -109.5t-32 -113.5h-821l53 303h-467l-206 -303q-37 -6 -84 -9t-88 -3t-80 3t-74 9zM700 551h342l121 692 h-12z"/>
<glyph unicode="Ç" horiz-adv-x="1175" d="M213 541q0 199 59.5 372.5t167 304t259 205t335.5 74.5q96 0 171 -11t155 -48q-12 -63 -31.5 -118.5t-54.5 -121.5q-70 27 -122 35t-99 8q-137 0 -235.5 -59.5t-161 -154.5t-92 -216t-29.5 -244q0 -168 87 -249.5t248 -81.5q31 0 57.5 2t53.5 6t57 13l70 22 q23 -53 36 -119t17 -129q-41 -16 -85 -26.5t-87 -16.5t-83 -9.5t-68 -3.5l-45 -84q16 4 49 5q80 0 127 -43t47 -123q0 -66 -27.5 -109t-72 -68.5t-100.5 -36t-111 -10.5q-59 0 -109.5 11.5t-69.5 25.5q8 33 21.5 67t36.5 64q35 -10 65.5 -17t61.5 -7q14 0 35.5 2t40 8 t31.5 19.5t13 35.5q0 35 -27.5 47.5t-74.5 12.5q-29 0 -60.5 -4t-60.5 -15l-12 15l109 211q-248 29 -370 179.5t-122 379.5z"/>
<glyph unicode="È" horiz-adv-x="1085" d="M162 0l258 1473h807q0 -8 1 -16.5t1 -16.5q0 -53 -12.5 -108.5t-34.5 -112.5h-508l-56 -320h404q0 -123 -45 -256h-404l-69 -389h522q0 -8 1 -15.5t1 -15.5q0 -55 -13.5 -109.5t-31.5 -113.5h-821zM494 1829q10 2 31.5 3t49 3t57.5 3t56 1q47 0 93 -3t71 -7l180 -238 q-16 -4 -56 -8t-81 -4t-76 2t-55 6z"/>
<glyph unicode="É" horiz-adv-x="1085" d="M162 0l258 1473h807q0 -8 1 -16.5t1 -16.5q0 -53 -12.5 -108.5t-34.5 -112.5h-508l-56 -320h404q0 -123 -45 -256h-404l-69 -389h522q0 -8 1 -15.5t1 -15.5q0 -55 -13.5 -109.5t-31.5 -113.5h-821zM649 1591l228 219q25 4 70.5 7.5t92.5 3.5q53 0 105.5 -3t75.5 -8 l-291 -221q-20 -4 -59.5 -6t-80 -2t-83 3t-58.5 7z"/>
<glyph unicode="Ê" horiz-adv-x="1085" d="M162 0l258 1473h807q0 -8 1 -16.5t1 -16.5q0 -53 -12.5 -108.5t-34.5 -112.5h-508l-56 -320h404q0 -123 -45 -256h-404l-69 -389h522q0 -8 1 -15.5t1 -15.5q0 -55 -13.5 -109.5t-31.5 -113.5h-821zM498 1599l245 224q35 4 82 7t90 3q27 0 69 -2t81 -10l156 -222 q-49 -12 -127 -12q-35 0 -75 3t-73 12l-61 100l-105 -100q-29 -8 -68.5 -11.5t-76.5 -3.5q-82 0 -137 12z"/>
<glyph unicode="Ë" horiz-adv-x="1085" d="M162 0l258 1473h807q0 -8 1 -16.5t1 -16.5q0 -53 -12.5 -108.5t-34.5 -112.5h-508l-56 -320h404q0 -123 -45 -256h-404l-69 -389h522q0 -8 1 -15.5t1 -15.5q0 -55 -13.5 -109.5t-31.5 -113.5h-821zM500 1591q2 63 11 123t32 119q33 6 68.5 9t64.5 3t64.5 -3t66.5 -9 q-2 -63 -11.5 -122.5t-31.5 -119.5q-35 -6 -70 -8t-65 -2q-27 0 -63.5 2t-65.5 8zM952 1591v21q0 52 9 102q10 59 34 119q33 6 69 9t64.5 3t64.5 -3t67 -9q-4 -61 -13.5 -120.5t-29.5 -121.5q-35 -6 -71 -8t-64.5 -2t-64.5 2t-65 8z"/>
<glyph unicode="Ì" horiz-adv-x="620" d="M162 0l258 1470q78 14 151 15q35 0 73 -3t77 -12l-258 -1470q-84 -12 -154 -12q-73 0 -147 12zM270 1829q10 2 32 3t49.5 3t57 3t56.5 1q47 0 93 -3t71 -7l180 -238q-16 -4 -56 -8t-81 -4t-76 2t-55 6z"/>
<glyph unicode="Í" horiz-adv-x="620" d="M162 0l258 1470q78 14 151 15q35 0 73 -3t77 -12l-258 -1470q-84 -12 -154 -12q-73 0 -147 12zM397 1591l228 219q25 4 70.5 7.5t92.5 3.5q53 0 105.5 -3t75.5 -8l-291 -221q-20 -4 -59 -6t-80 -2t-83.5 3t-58.5 7z"/>
<glyph unicode="Î" horiz-adv-x="620" d="M162 0l258 1470q78 14 151 15q35 0 73 -3t77 -12l-258 -1470q-84 -12 -154 -12q-73 0 -147 12zM250 1599l246 224q35 4 82 7t90 3q27 0 68.5 -2t80.5 -10l156 -222q-49 -12 -127 -12q-35 0 -75 3t-73 12l-61 100l-105 -100q-29 -8 -68.5 -11.5t-76.5 -3.5q-82 0 -137 12z "/>
<glyph unicode="Ï" horiz-adv-x="620" d="M162 0l258 1470q78 14 151 15q35 0 73 -3t77 -12l-258 -1470q-84 -12 -154 -12q-73 0 -147 12zM252 1591q2 63 11 123t32 119q33 6 68.5 9t64.5 3t64.5 -3t66.5 -9q-2 -63 -11 -122.5t-32 -119.5q-35 -6 -69.5 -8t-65.5 -2q-27 0 -63.5 2t-65.5 8zM705 1591q0 11 -1 21 q0 52 9 102q10 59 35 119q33 6 68.5 9t64 3t64.5 -3t67 -9q-4 -61 -13.5 -120.5t-29.5 -121.5q-35 -6 -71 -8t-64.5 -2t-64 2t-64.5 8z"/>
<glyph unicode="Ð" horiz-adv-x="1429" d="M156 653l-2 39q0 33 5 66q7 51 29 102h148l108 610q82 10 168 18.5t183 8.5q158 0 283.5 -41t213.5 -117.5t135.5 -188.5t47.5 -253q0 -221 -70 -393t-195 -289t-298 -178.5t-377 -61.5q-117 0 -193 7.5t-156 17.5l115 653h-145zM528 238q37 -6 103 -7q117 0 212 47.5 t164.5 131.5t107.5 200.5t38 257.5q0 94 -25.5 165t-69.5 116t-105.5 67.5t-131.5 22.5q-43 0 -65.5 -1t-50.5 -5l-66 -373h274l2 -33q0 -87 -36 -174h-277z"/>
<glyph unicode="Ñ" horiz-adv-x="1363" d="M162 0l258 1473q35 8 66.5 10t60.5 2q61 0 123 -12l362 -936l162 936q74 12 145 12q33 0 64 -2t61 -10l-260 -1473q-72 -12 -125 -12q-57 0 -121 12l-364 934l-162 -934q-35 -6 -70.5 -9t-70.5 -3q-66 0 -129 12zM618 1741q41 45 107 79.5t141 34.5q39 0 73 -11 t66.5 -24.5t67.5 -24.5t74 -11q35 0 66.5 9t78.5 48q25 -29 46.5 -70.5t25.5 -80.5q-43 -45 -108.5 -78t-141.5 -33q-39 0 -73.5 11.5t-68.5 24.5t-68 24.5t-70 11.5q-39 0 -68 -11.5t-76 -46.5q-23 25 -45.5 67t-26.5 81z"/>
<glyph unicode="Ò" horiz-adv-x="1425" d="M205 524q0 111 19.5 226.5t60.5 224t102.5 204t146 166t192.5 111.5t239 41q129 0 225 -39t158.5 -110.5t93.5 -175t31 -234.5q0 -111 -19.5 -226.5t-60.5 -222t-103.5 -200.5t-146.5 -164t-191.5 -110t-238.5 -40q-260 0 -384 145.5t-124 403.5zM516 510 q0 -285 223 -285q80 0 142.5 36t108.5 94.5t79 135t52.5 157.5t28.5 161t9 145q0 287 -221 287q-80 0 -142.5 -36t-109.5 -94t-80 -135t-52 -158t-28.5 -160.5t-9.5 -147.5zM705 1829q10 2 31.5 3t49 3t57 3t56.5 1q47 0 93 -3t71 -7l180 -238q-16 -4 -56 -8t-81 -4t-76 2 t-55 6z"/>
<glyph unicode="Ó" horiz-adv-x="1425" d="M205 524q0 111 19.5 226.5t60.5 224t102.5 204t146 166t192.5 111.5t239 41q129 0 225 -39t158.5 -110.5t93.5 -175t31 -234.5q0 -111 -19.5 -226.5t-60.5 -222t-103.5 -200.5t-146.5 -164t-191.5 -110t-238.5 -40q-260 0 -384 145.5t-124 403.5zM516 510 q0 -285 223 -285q80 0 142.5 36t108.5 94.5t79 135t52.5 157.5t28.5 161t9 145q0 287 -221 287q-80 0 -142.5 -36t-109.5 -94t-80 -135t-52 -158t-28.5 -160.5t-9.5 -147.5zM782 1591l228 219q25 4 70.5 7.5t93.5 3.5q53 0 105 -3t75 -8l-291 -221q-20 -4 -59 -6t-80 -2 t-83.5 3t-58.5 7z"/>
<glyph unicode="Ô" horiz-adv-x="1425" d="M205 524q0 111 19.5 226.5t60.5 224t102.5 204t146 166t192.5 111.5t239 41q129 0 225 -39t158.5 -110.5t93.5 -175t31 -234.5q0 -111 -19.5 -226.5t-60.5 -222t-103.5 -200.5t-146.5 -164t-191.5 -110t-238.5 -40q-260 0 -384 145.5t-124 403.5zM516 510 q0 -285 223 -285q80 0 142.5 36t108.5 94.5t79 135t52.5 157.5t28.5 161t9 145q0 287 -221 287q-80 0 -142.5 -36t-109.5 -94t-80 -135t-52 -158t-28.5 -160.5t-9.5 -147.5zM649 1599l246 224q35 4 82 7t90 3q27 0 69 -2t81 -10l155 -222q-49 -12 -127 -12q-35 0 -75 3 t-72 12l-62 100l-104 -100q-29 -8 -69 -11.5t-77 -3.5q-82 0 -137 12z"/>
<glyph unicode="Õ" horiz-adv-x="1425" d="M205 524q0 111 19.5 226.5t60.5 224t102.5 204t146 166t192.5 111.5t239 41q129 0 225 -39t158.5 -110.5t93.5 -175t31 -234.5q0 -111 -19.5 -226.5t-60.5 -222t-103.5 -200.5t-146.5 -164t-191.5 -110t-238.5 -40q-260 0 -384 145.5t-124 403.5zM516 510 q0 -285 223 -285q80 0 142.5 36t108.5 94.5t79 135t52.5 157.5t28.5 161t9 145q0 287 -221 287q-80 0 -142.5 -36t-109.5 -94t-80 -135t-52 -158t-28.5 -160.5t-9.5 -147.5zM659 1741q41 45 106.5 79.5t141.5 34.5q39 0 73 -11t66.5 -24.5t67.5 -24.5t74 -11q35 0 66.5 9 t78.5 48q25 -29 46.5 -70.5t25.5 -80.5q-43 -45 -108.5 -78t-141.5 -33q-39 0 -73.5 11.5t-68.5 24.5t-68 24.5t-71 11.5q-39 0 -67.5 -11.5t-75.5 -46.5q-23 25 -45.5 67t-26.5 81z"/>
<glyph unicode="Ö" horiz-adv-x="1425" d="M205 524q0 111 19.5 226.5t60.5 224t102.5 204t146 166t192.5 111.5t239 41q129 0 225 -39t158.5 -110.5t93.5 -175t31 -234.5q0 -111 -19.5 -226.5t-60.5 -222t-103.5 -200.5t-146.5 -164t-191.5 -110t-238.5 -40q-260 0 -384 145.5t-124 403.5zM516 510 q0 -285 223 -285q80 0 142.5 36t108.5 94.5t79 135t52.5 157.5t28.5 161t9 145q0 287 -221 287q-80 0 -142.5 -36t-109.5 -94t-80 -135t-52 -158t-28.5 -160.5t-9.5 -147.5zM649 1591q2 63 11.5 123t31.5 119q33 6 69 9t64.5 3t64.5 -3t66 -9q-2 -63 -11 -122.5t-32 -119.5 q-35 -6 -69.5 -8t-65.5 -2q-27 0 -63.5 2t-65.5 8zM1102 1591q0 11 -1 21q0 52 9 102q10 59 35 119q33 6 68.5 9t64.5 3t64.5 -3t66.5 -9q-4 -61 -13.5 -120.5t-29.5 -121.5q-35 -6 -70.5 -8t-64.5 -2t-64.5 2t-64.5 8z"/>
<glyph unicode="×" d="M289 485l270 228l-182 223l45 50.5t49 45.5q57 47 113 80l182 -223l264 225q47 -35 82 -78q20 -23 42 -55.5t36 -58.5l-266 -228l178 -213q-23 -27 -45.5 -49t-48.5 -45l-56 -43q-27 -20 -55 -37l-178 213l-270 -229q-23 16 -51 45l-48 51q-18 23 -33 47z"/>
<glyph unicode="Ø" horiz-adv-x="1425" d="M145 -35l152 195q-92 137 -92 364q0 111 19.5 226.5t60.5 224t102.5 204t146 166t192.5 111.5t239 41q190 0 309 -84l65 84q16 4 45 7t50 3q43 0 88 -10l-146 -186q96 -143 97 -373q0 -111 -19.5 -226.5t-60.5 -222t-103.5 -200.5t-146.5 -164t-191.5 -110t-238.5 -40 q-98 0 -176 20.5t-138 61.5l-71 -92q-31 -8 -78 -8q-23 0 -55 2t-50 6zM516 476q0 -15 2 -32l576 738q-55 59 -156 59q-80 0 -142.5 -36t-109.5 -94t-80 -135t-52 -158t-28.5 -160.5t-9.5 -147.5v-34zM580 287q55 -61 159 -62q80 0 142.5 36t108.5 94.5t79 135t52.5 157.5 t28.5 161t9 145q0 20 -1 38t-3 34z"/>
<glyph unicode="Ù" horiz-adv-x="1368" d="M242 412q0 102 22 233l146 828q41 8 78.5 10t74.5 2q35 0 71 -2t75 -10l-134 -764q-14 -84 -22 -149.5t-8 -119.5q0 -106 39 -156.5t137 -50.5q76 0 127 28t87 86.5t59.5 147.5t45.5 214l134 764q45 8 80.5 10t70.5 2q37 0 74 -2t76 -10l-146 -828q-29 -164 -72 -289 t-116.5 -209t-185 -128t-273.5 -44q-223 0 -331.5 103t-108.5 334zM633 1829q10 2 31.5 3t49 3t57.5 3t56 1q47 0 93.5 -3t70.5 -7l180 -238q-16 -4 -56 -8t-81 -4t-75.5 2t-55.5 6z"/>
<glyph unicode="Ú" horiz-adv-x="1368" d="M242 412q0 102 22 233l146 828q41 8 78.5 10t74.5 2q35 0 71 -2t75 -10l-134 -764q-14 -84 -22 -149.5t-8 -119.5q0 -106 39 -156.5t137 -50.5q76 0 127 28t87 86.5t59.5 147.5t45.5 214l134 764q45 8 80.5 10t70.5 2q37 0 74 -2t76 -10l-146 -828q-29 -164 -72 -289 t-116.5 -209t-185 -128t-273.5 -44q-223 0 -331.5 103t-108.5 334zM788 1591l228 219q25 4 71 7.5t93 3.5q53 0 105 -3t75 -8l-291 -221q-20 -4 -59 -6t-80 -2t-83.5 3t-58.5 7z"/>
<glyph unicode="Û" horiz-adv-x="1368" d="M242 412q0 102 22 233l146 828q41 8 78.5 10t74.5 2q35 0 71 -2t75 -10l-134 -764q-14 -84 -22 -149.5t-8 -119.5q0 -106 39 -156.5t137 -50.5q76 0 127 28t87 86.5t59.5 147.5t45.5 214l134 764q45 8 80.5 10t70.5 2q37 0 74 -2t76 -10l-146 -828q-29 -164 -72 -289 t-116.5 -209t-185 -128t-273.5 -44q-223 0 -331.5 103t-108.5 334zM625 1599l245 224q35 4 82 7t90 3q27 0 69 -2t81 -10l156 -222q-49 -12 -127 -12q-35 0 -75 3t-73 12l-61 100l-105 -100q-29 -8 -68.5 -11.5t-76.5 -3.5q-82 0 -137 12z"/>
<glyph unicode="Ü" horiz-adv-x="1368" d="M242 412q0 102 22 233l146 828q41 8 78.5 10t74.5 2q35 0 71 -2t75 -10l-134 -764q-14 -84 -22 -149.5t-8 -119.5q0 -106 39 -156.5t137 -50.5q76 0 127 28t87 86.5t59.5 147.5t45.5 214l134 764q45 8 80.5 10t70.5 2q37 0 74 -2t76 -10l-146 -828q-29 -164 -72 -289 t-116.5 -209t-185 -128t-273.5 -44q-223 0 -331.5 103t-108.5 334zM629 1591q2 63 11 123t32 119q33 6 68.5 9t64.5 3t64.5 -3t66.5 -9q-2 -63 -11.5 -122.5t-31.5 -119.5q-35 -6 -70 -8t-65 -2q-27 0 -63.5 2t-65.5 8zM1081 1591v21q0 52 9 102q10 59 34 119q33 6 69 9 t64.5 3t64.5 -3t67 -9q-4 -61 -13.5 -120.5t-29.5 -121.5q-35 -6 -71 -8t-64.5 -2t-64.5 2t-65 8z"/>
<glyph unicode="Ý" horiz-adv-x="1153" d="M242 1473q88 12 166 12q37 0 73.5 -2t75.5 -10l158 -654l379 654q41 6 82 8t81 2q35 0 75 -2t79 -8l-600 -947l-92 -526q-43 -8 -81 -10t-75 -2q-35 0 -70.5 2t-74.5 10l92 526zM684 1591l227 219q25 4 71 7.5t93 3.5q53 0 105.5 -3t74.5 -8l-290 -221q-20 -4 -59.5 -6 t-80.5 -2t-83 3t-58 7z"/>
<glyph unicode="Þ" horiz-adv-x="1218" d="M176 0l260 1477q39 4 73 6t69 2q41 0 81.5 -2t75.5 -6l-43 -228q88 0 187.5 -16t182.5 -64.5t138 -134.5t55 -225q0 -125 -44 -232.5t-128 -186.5t-204.5 -124t-274.5 -45q-33 0 -53.5 1t-38.5 3l-37 -225q-41 -6 -78 -8t-71 -2q-31 0 -69 2t-81 8zM557 475q27 -6 92 -6 q49 0 100.5 16.5t94.5 54.5t70.5 99t27.5 154q0 63 -19.5 103t-51 63.5t-70.5 31.5t-76 8h-31q-14 0 -45 -4z"/>
<glyph unicode="ß" horiz-adv-x="1236" d="M-238 -471q10 123 68 221q23 -8 50.5 -13t43.5 -5q39 0 74 11t64.5 45t53 93.5t40.5 155.5l182 1022q23 129 67 218t107 143.5t148 78t191.5 23.5t180.5 -28t120 -72t65.5 -100t19.5 -114q0 -94 -39 -159.5t-87 -117.5l-87 -97q-39 -45 -39 -97q0 -47 36 -83l79 -77 q43 -42 78.5 -99.5t35.5 -145.5q0 -86 -31.5 -151.5t-88 -111.5t-134 -70t-169.5 -24q-145 0 -248 45q16 55 39.5 111.5t56.5 110.5q39 -25 80 -33t82 -8q51 0 94 30.5t43 90.5q0 51 -37 84.5t-81 69.5t-81 82t-37 122q0 78 41 139.5t91.5 116.5t91.5 110.5t41 120.5 q0 55 -42 88t-108 33q-76 0 -121 -44t-67 -173l-193 -1061q-27 -150 -73 -248t-107 -156.5t-139 -82t-168 -23.5q-95 0 -187 29z"/>
<glyph unicode="à" horiz-adv-x="1165" d="M147 289q0 154 46.5 297t137.5 253.5t226 177t315 66.5q90 0 168 -12t154 -35l-100 -577q-23 -129 -33 -228.5t-10 -154.5v-38q0 -15 2 -34q-68 -12 -133 -12q-57 0 -127 12q-4 16 -8.5 39t-4.5 68v39q0 20 4 47q-59 -94 -151 -158t-215 -64q-135 0 -203 86.5t-68 227.5z M446 360q0 -152 101 -151q98 0 182 120t123 337l31 174q-18 4 -36 5t-34 1q-98 0 -166.5 -49t-114 -123t-66 -159t-20.5 -155zM524 1473q41 6 79 9t91 3q100 0 185 -12l182 -252q-68 -12 -133 -13q-41 0 -78 4.5t-64 8.5z"/>
<glyph unicode="á" horiz-adv-x="1165" d="M147 289q0 154 46.5 297t137.5 253.5t226 177t315 66.5q90 0 168 -12t154 -35l-100 -577q-23 -129 -33 -228.5t-10 -154.5v-38q0 -15 2 -34q-68 -12 -133 -12q-57 0 -127 12q-4 16 -8.5 39t-4.5 68v39q0 20 4 47q-59 -94 -151 -158t-215 -64q-135 0 -203 86.5t-68 227.5z M446 360q0 -152 101 -151q98 0 182 120t123 337l31 174q-18 4 -36 5t-34 1q-98 0 -166.5 -49t-114 -123t-66 -159t-20.5 -155zM672 1221l209 252q82 12 184 12q53 0 91 -3t79 -9l-289 -252q-27 -4 -63.5 -8.5t-77.5 -4.5q-65 1 -133 13z"/>
<glyph unicode="â" horiz-adv-x="1165" d="M147 289q0 154 46.5 297t137.5 253.5t226 177t315 66.5q90 0 168 -12t154 -35l-100 -577q-23 -129 -33 -228.5t-10 -154.5v-38q0 -15 2 -34q-68 -12 -133 -12q-57 0 -127 12q-4 16 -8.5 39t-4.5 68v39q0 20 4 47q-59 -94 -151 -158t-215 -64q-135 0 -203 86.5t-68 227.5z M446 360q0 -152 101 -151q98 0 182 120t123 337l31 174q-18 4 -36 5t-34 1q-98 0 -166.5 -49t-114 -123t-66 -159t-20.5 -155zM473 1219l246 254q35 4 82 7t90 3q27 0 68.5 -2t80.5 -11l156 -251q-49 -12 -127 -13q-35 0 -74 3t-71 12l-62 131l-104 -131q-29 -8 -70 -11.5 t-78 -3.5q-82 1 -137 13z"/>
<glyph unicode="ã" horiz-adv-x="1165" d="M147 289q0 154 46.5 297t137.5 253.5t226 177t315 66.5q90 0 168 -12t154 -35l-100 -577q-23 -129 -33 -228.5t-10 -154.5v-38q0 -15 2 -34q-68 -12 -133 -12q-57 0 -127 12q-4 16 -8.5 39t-4.5 68v39q0 20 4 47q-59 -94 -151 -158t-215 -64q-135 0 -203 86.5t-68 227.5z M446 360q0 -152 101 -151q98 0 182 120t123 337l31 174q-18 4 -36 5t-34 1q-98 0 -166.5 -49t-114 -123t-66 -159t-20.5 -155zM489 1370q41 45 107 80t141 35q39 0 73 -11.5t66.5 -24.5t67.5 -24.5t74 -11.5q35 0 66.5 9.5t78.5 47.5q25 -29 46.5 -70.5t25.5 -80.5 q-43 -45 -108.5 -78t-141.5 -33q-39 0 -73.5 11.5t-68.5 24.5t-68 24.5t-70 11.5q-39 0 -68 -11.5t-76 -45.5q-23 25 -45.5 66.5t-26.5 80.5z"/>
<glyph unicode="ä" horiz-adv-x="1165" d="M147 289q0 154 46.5 297t137.5 253.5t226 177t315 66.5q90 0 168 -12t154 -35l-100 -577q-23 -129 -33 -228.5t-10 -154.5v-38q0 -15 2 -34q-68 -12 -133 -12q-57 0 -127 12q-4 16 -8.5 39t-4.5 68v39q0 20 4 47q-59 -94 -151 -158t-215 -64q-135 0 -203 86.5t-68 227.5z M446 360q0 -152 101 -151q98 0 182 120t123 337l31 174q-18 4 -36 5t-34 1q-98 0 -166.5 -49t-114 -123t-66 -159t-20.5 -155zM477 1214q2 63 11.5 123t31.5 119q33 6 69 9t64.5 3t64.5 -3t66 -9q-2 -63 -11 -122.5t-32 -119.5q-35 -6 -69.5 -8t-65.5 -2q-27 0 -63.5 2 t-65.5 8zM930 1214q0 11 -1 22q0 52 9 101q10 59 35 119q33 6 68.5 9t64.5 3t64.5 -3t66.5 -9q-4 -61 -13.5 -120.5t-29.5 -121.5q-35 -6 -71 -8t-64.5 -2t-64 2t-64.5 8z"/>
<glyph unicode="å" horiz-adv-x="1165" d="M147 289q0 154 46.5 297t137.5 253.5t226 177t315 66.5q90 0 168 -12t154 -35l-100 -577q-23 -129 -33 -228.5t-10 -154.5v-38q0 -15 2 -34q-68 -12 -133 -12q-57 0 -127 12q-4 16 -8.5 39t-4.5 68v39q0 20 4 47q-59 -94 -151 -158t-215 -64q-135 0 -203 86.5t-68 227.5z M446 360q0 -152 101 -151q98 0 182 120t123 337l31 174q-18 4 -36 5t-34 1q-98 0 -166.5 -49t-114 -123t-66 -159t-20.5 -155zM684 1399q0 49 16.5 95t48 82t78.5 58.5t109 22.5q90 0 150.5 -53.5t60.5 -167.5q0 -53 -18.5 -97.5t-51.5 -78t-80 -52t-102 -18.5 q-94 0 -152.5 53.5t-58.5 155.5zM825 1409q0 -96 82 -96q43 0 72 32.5t29 92.5q0 96 -84 96q-49 0 -74 -39t-25 -86z"/>
<glyph unicode="æ" horiz-adv-x="1703" d="M147 289q0 154 46.5 297t137.5 253.5t223 177t304 66.5q70 0 130.5 -10t135.5 -33l-18 -98q53 53 142 97t206 44q63 0 117.5 -16t94.5 -50t62.5 -83t22.5 -115q0 -92 -43 -159.5t-114.5 -114.5t-163 -77t-189.5 -44l-137 -23q12 -98 65.5 -146t155.5 -48q82 0 144.5 17.5 t132.5 45.5q33 -41 44 -99t11 -124q-35 -16 -81 -29.5t-95 -22.5t-98.5 -14.5t-88.5 -5.5q-184 0 -287.5 65.5t-146.5 182.5q-100 -139 -208.5 -193.5t-221.5 -54.5q-145 0 -214 86.5t-69 227.5zM446 360q0 -152 101 -151q102 0 184 120t121 337l31 174q-18 4 -36 5t-34 1 q-98 0 -166.5 -49t-114 -123t-66 -159t-20.5 -155zM1114 594l107 16q78 12 127 32t77.5 43.5t39 48t10.5 48.5q0 39 -26 63.5t-69 24.5q-53 0 -97 -23.5t-77 -62.5t-56.5 -89t-35.5 -101z"/>
<glyph unicode="ç" horiz-adv-x="942" d="M158 401q0 121 40 243t117.5 219.5t191.5 158.5t263 61q70 0 135.5 -10t124.5 -33q-2 -53 -18.5 -113.5t-50.5 -115.5q-45 18 -89.5 28.5t-97.5 10.5q-80 0 -139.5 -36t-99 -94t-59 -134t-19.5 -158q0 -113 57 -166t145 -53q45 0 89.5 8t109.5 35q23 -37 37 -88t14 -135 q-61 -29 -129.5 -40.5t-150.5 -13.5l-45 -84q16 4 49 5q80 0 127 -43t47 -123q0 -66 -27.5 -109t-71.5 -68.5t-100.5 -36t-111.5 -10.5q-59 0 -109.5 11.5t-69.5 25.5q8 33 21.5 67t36.5 64q35 -10 65.5 -17t61.5 -7q14 0 35.5 2t40 8t32 19.5t13.5 35.5q0 35 -28 47.5 t-75 12.5q-29 0 -60.5 -4t-60.5 -15l-12 15l111 213q-176 25 -258 134t-82 283z"/>
<glyph unicode="è" horiz-adv-x="1042" d="M158 410q0 125 43 245.5t121.5 216t192.5 153.5t255 58q68 0 126 -16t101 -50t68 -83t25 -115q0 -92 -43 -159.5t-115 -114.5t-163 -77t-189 -44l-138 -23q12 -98 65.5 -146t156.5 -48q82 0 144 17.5t132 45.5q33 -41 44 -99t11 -124q-35 -16 -81 -29.5t-95 -22.5 t-98 -14.5t-88 -5.5q-125 0 -214 31t-147.5 87.5t-86 137.5t-27.5 179zM444 1473q41 6 79 9t91 3q100 0 185 -12l182 -252q-68 -12 -133 -13q-41 0 -78 4.5t-63 8.5zM453 594l106 16q78 12 127 32t78 43.5t39 48t10 48.5q0 39 -25.5 63.5t-68.5 24.5q-53 0 -97 -23.5 t-77 -62.5t-56.5 -89t-35.5 -101z"/>
<glyph unicode="é" horiz-adv-x="1042" d="M158 410q0 125 43 245.5t121.5 216t192.5 153.5t255 58q68 0 126 -16t101 -50t68 -83t25 -115q0 -92 -43 -159.5t-115 -114.5t-163 -77t-189 -44l-138 -23q12 -98 65.5 -146t156.5 -48q82 0 144 17.5t132 45.5q33 -41 44 -99t11 -124q-35 -16 -81 -29.5t-95 -22.5 t-98 -14.5t-88 -5.5q-125 0 -214 31t-147.5 87.5t-86 137.5t-27.5 179zM453 594l106 16q78 12 127 32t78 43.5t39 48t10 48.5q0 39 -25.5 63.5t-68.5 24.5q-53 0 -97 -23.5t-77 -62.5t-56.5 -89t-35.5 -101zM559 1221l209 252q82 12 184 12q53 0 91 -3t79 -9l-288 -252 q-27 -4 -64 -8.5t-78 -4.5q-65 1 -133 13z"/>
<glyph unicode="ê" horiz-adv-x="1042" d="M158 410q0 125 43 245.5t121.5 216t192.5 153.5t255 58q68 0 126 -16t101 -50t68 -83t25 -115q0 -92 -43 -159.5t-115 -114.5t-163 -77t-189 -44l-138 -23q12 -98 65.5 -146t156.5 -48q82 0 144 17.5t132 45.5q33 -41 44 -99t11 -124q-35 -16 -81 -29.5t-95 -22.5 t-98 -14.5t-88 -5.5q-125 0 -214 31t-147.5 87.5t-86 137.5t-27.5 179zM387 1219l246 254q35 4 82 7t90 3q27 0 68.5 -2t80.5 -11l156 -251q-49 -12 -127 -13q-35 0 -74 3t-71 12l-62 131l-104 -131q-29 -8 -70 -11.5t-78 -3.5q-82 1 -137 13zM453 594l106 16q78 12 127 32 t78 43.5t39 48t10 48.5q0 39 -25.5 63.5t-68.5 24.5q-53 0 -97 -23.5t-77 -62.5t-56.5 -89t-35.5 -101z"/>
<glyph unicode="ë" horiz-adv-x="1042" d="M158 410q0 125 43 245.5t121.5 216t192.5 153.5t255 58q68 0 126 -16t101 -50t68 -83t25 -115q0 -92 -43 -159.5t-115 -114.5t-163 -77t-189 -44l-138 -23q12 -98 65.5 -146t156.5 -48q82 0 144 17.5t132 45.5q33 -41 44 -99t11 -124q-35 -16 -81 -29.5t-95 -22.5 t-98 -14.5t-88 -5.5q-125 0 -214 31t-147.5 87.5t-86 137.5t-27.5 179zM383 1214q2 63 11 123t32 119q33 6 68.5 9t64.5 3t64.5 -3t66.5 -9q-2 -63 -11 -122.5t-32 -119.5q-35 -6 -69.5 -8t-65.5 -2q-27 0 -63.5 2t-65.5 8zM453 594l106 16q78 12 127 32t78 43.5t39 48 t10 48.5q0 39 -25.5 63.5t-68.5 24.5q-53 0 -97 -23.5t-77 -62.5t-56.5 -89t-35.5 -101zM836 1214q0 11 -1 22q0 52 9 101q10 59 35 119q33 6 68.5 9t64 3t64.5 -3t67 -9q-4 -61 -13.5 -120.5t-29.5 -121.5q-35 -6 -71 -8t-64.5 -2t-64 2t-64.5 8z"/>
<glyph unicode="ì" horiz-adv-x="638" d="M195 1473q41 6 78.5 9t91.5 3q100 0 184 -12l182 -252q-68 -12 -133 -13q-41 0 -78 4.5t-63 8.5zM199 0l147 838h-129q0 6 -1 12t-1 14q0 53 10.5 99.5t30.5 95.5h414l-187 -1059q-78 -12 -147 -12q-63 0 -137 12z"/>
<glyph unicode="í" horiz-adv-x="638" d="M199 0l147 838h-129q0 6 -1 12t-1 14q0 53 10.5 99.5t30.5 95.5h414l-187 -1059q-78 -12 -147 -12q-63 0 -137 12zM293 1221l209 252q82 12 184 12q53 0 91 -3t79 -9l-289 -252q-27 -4 -63.5 -8.5t-77.5 -4.5q-65 1 -133 13z"/>
<glyph unicode="î" horiz-adv-x="638" d="M141 1219l246 254q35 4 82 7t90 3q27 0 69 -2t81 -11l155 -251q-49 -12 -127 -13q-35 0 -73.5 3t-71.5 12l-62 131l-104 -131q-29 -8 -70 -11.5t-77 -3.5q-83 1 -138 13zM199 0l147 838h-129q0 6 -1 12t-1 14q0 53 10.5 99.5t30.5 95.5h414l-187 -1059q-78 -12 -147 -12 q-63 0 -137 12z"/>
<glyph unicode="ï" horiz-adv-x="638" d="M141 1214q2 63 11.5 123t31.5 119q33 6 69 9t64.5 3t64.5 -3t67 -9q-2 -63 -11.5 -122.5t-31.5 -119.5q-35 -6 -70 -8t-66 -2q-27 0 -63.5 2t-65.5 8zM199 0l147 838h-129q0 6 -1 12t-1 14q0 53 10.5 99.5t30.5 95.5h414l-187 -1059q-78 -12 -147 -12q-63 0 -137 12z M594 1214v22q0 52 8 101q10 59 35 119q33 6 68.5 9t64.5 3t64.5 -3t66.5 -9q-4 -61 -13 -120.5t-30 -121.5q-35 -6 -70.5 -8t-64.5 -2t-64.5 2t-64.5 8z"/>
<glyph unicode="ð" horiz-adv-x="1171" d="M162 381q0 119 33.5 229.5t101.5 196.5t167 138t228 52q63 0 124 -22.5t104 -65.5q-23 76 -57 140.5t-75 105.5l-182 -108q-23 16 -46 47.5t-34 68.5l140 82q-35 16 -80 26.5t-86 12.5q0 59 10 117.5t43 107.5q111 0 206 -29.5t152 -76.5l179 104q25 -23 44 -49t29 -67 l-141 -88q39 -49 68.5 -113t49 -135.5t29 -147.5t9.5 -151q0 -137 -33 -276.5t-104.5 -251t-188.5 -182.5t-283 -71q-205 0 -306 110t-101 296zM453 385q0 -98 36.5 -147.5t116.5 -49.5q74 0 124 41t81 102.5t44 134.5t13 136q0 90 -36.5 137t-118.5 47q-74 0 -124 -40.5 t-81 -101t-43 -131.5t-12 -128z"/>
<glyph unicode="ñ" horiz-adv-x="1198" d="M150 0l110 604q23 129 34 228.5t11 154.5v38q0 15 -2 34q68 12 135 12q31 0 61.5 -3t65.5 -9q4 -16 8.5 -39t4.5 -68q0 -18 -1.5 -36.5t-5.5 -45.5q25 43 62 82t84 68t101 45t110 16q123 0 191.5 -62.5t68.5 -207.5q0 -31 -4 -65.5t-10 -73.5l-119 -672 q-78 -12 -149.5 -12t-141.5 12l115 649q8 41 8 78q0 61 -26.5 86t-76.5 25q-29 0 -64.5 -14.5t-72.5 -60.5t-71.5 -130t-59.5 -221l-76 -412q-80 -12 -149 -12q-71 0 -141 12zM440 1370q41 45 106.5 80t141.5 35q39 0 73 -11.5t66.5 -24.5t67.5 -24.5t74 -11.5 q35 0 66.5 9.5t78.5 47.5q25 -29 46.5 -70.5t25.5 -80.5q-43 -45 -108.5 -78t-141.5 -33q-39 0 -74 11.5t-68.5 24.5t-67.5 24.5t-71 11.5q-39 0 -67.5 -11.5t-75.5 -45.5q-23 25 -45.5 66.5t-26.5 80.5z"/>
<glyph unicode="ò" horiz-adv-x="1142" d="M160 389q0 123 36.5 247t110.5 223t185.5 161.5t261.5 62.5q213 0 312 -112.5t99 -304.5q0 -127 -35.5 -250t-109.5 -221.5t-186.5 -159t-264.5 -60.5q-211 0 -310 110.5t-99 303.5zM451 379q0 -182 145 -182q78 0 131 49t87 121.5t48.5 153.5t14.5 147q0 188 -154 188 q-78 0 -129 -51t-84 -125t-46 -156t-13 -145zM494 1473q41 6 78.5 9t91.5 3q100 0 184 -12l182 -252q-68 -12 -133 -13q-41 0 -78 4.5t-63 8.5z"/>
<glyph unicode="ó" horiz-adv-x="1142" d="M160 389q0 123 36.5 247t110.5 223t185.5 161.5t261.5 62.5q213 0 312 -112.5t99 -304.5q0 -127 -35.5 -250t-109.5 -221.5t-186.5 -159t-264.5 -60.5q-211 0 -310 110.5t-99 303.5zM451 379q0 -182 145 -182q78 0 131 49t87 121.5t48.5 153.5t14.5 147q0 188 -154 188 q-78 0 -129 -51t-84 -125t-46 -156t-13 -145zM578 1221l208 252q82 12 185 12q53 0 91 -3t79 -9l-289 -252q-27 -4 -63.5 -8.5t-77.5 -4.5q-65 1 -133 13z"/>
<glyph unicode="ô" horiz-adv-x="1142" d="M160 389q0 123 36.5 247t110.5 223t185.5 161.5t261.5 62.5q213 0 312 -112.5t99 -304.5q0 -127 -35.5 -250t-109.5 -221.5t-186.5 -159t-264.5 -60.5q-211 0 -310 110.5t-99 303.5zM418 1219l246 254q35 4 82 7t90 3q27 0 68.5 -2t80.5 -11l156 -251q-49 -12 -127 -13 q-35 0 -74 3t-72 12l-61 131l-105 -131q-29 -8 -69.5 -11.5t-77.5 -3.5q-82 1 -137 13zM451 379q0 -182 145 -182q78 0 131 49t87 121.5t48.5 153.5t14.5 147q0 188 -154 188q-78 0 -129 -51t-84 -125t-46 -156t-13 -145z"/>
<glyph unicode="õ" horiz-adv-x="1142" d="M160 389q0 123 36.5 247t110.5 223t185.5 161.5t261.5 62.5q213 0 312 -112.5t99 -304.5q0 -127 -35.5 -250t-109.5 -221.5t-186.5 -159t-264.5 -60.5q-211 0 -310 110.5t-99 303.5zM414 1370q41 45 106.5 80t141.5 35q39 0 72.5 -11.5t66.5 -24.5t67.5 -24.5t73.5 -11.5 q35 0 66.5 9.5t78.5 47.5q25 -29 46.5 -70.5t25.5 -80.5q-43 -45 -108.5 -78t-141.5 -33q-39 0 -73.5 11.5t-68.5 24.5t-67.5 24.5t-70.5 11.5q-39 0 -68 -11.5t-76 -45.5q-23 25 -45 66.5t-26 80.5zM451 379q0 -182 145 -182q78 0 131 49t87 121.5t48.5 153.5t14.5 147 q0 188 -154 188q-78 0 -129 -51t-84 -125t-46 -156t-13 -145z"/>
<glyph unicode="ö" horiz-adv-x="1142" d="M160 389q0 123 36.5 247t110.5 223t185.5 161.5t261.5 62.5q213 0 312 -112.5t99 -304.5q0 -127 -35.5 -250t-109.5 -221.5t-186.5 -159t-264.5 -60.5q-211 0 -310 110.5t-99 303.5zM432 1214q2 63 11.5 123t31.5 119q33 6 69 9t64.5 3t64.5 -3t66 -9q-2 -63 -11 -122.5 t-32 -119.5q-35 -6 -69.5 -8t-65.5 -2q-27 0 -63.5 2t-65.5 8zM451 379q0 -182 145 -182q78 0 131 49t87 121.5t48.5 153.5t14.5 147q0 188 -154 188q-78 0 -129 -51t-84 -125t-46 -156t-13 -145zM885 1214q0 11 -1 22q0 52 9 101q10 59 35 119q33 6 68.5 9t64.5 3t64.5 -3 t66.5 -9q-4 -61 -13.5 -120.5t-29.5 -121.5q-35 -6 -71 -8t-64.5 -2t-64 2t-64.5 8z"/>
<glyph unicode="÷" d="M309 600q0 68 10.5 125t32.5 123h862q0 -8 1.5 -15.5t1.5 -15.5q0 -55 -13.5 -111.5t-32.5 -105.5h-862zM502 297q0 37 14 70.5t40 59.5t60.5 41t75.5 15q70 0 111 -41t41 -114q0 -37 -14.5 -70t-41 -58.5t-61.5 -40t-74 -14.5q-76 0 -113.5 46.5t-37.5 105.5zM643 1128 q0 37 14.5 71t40 59.5t60.5 41t76 15.5q70 0 110.5 -41t40.5 -115q0 -37 -14.5 -69.5t-41 -58t-61 -40t-73.5 -14.5q-76 0 -114 46t-38 105z"/>
<glyph unicode="ø" horiz-adv-x="1142" d="M135 -53l117 147q-47 53 -69.5 128t-22.5 167q0 123 36.5 247t110.5 223t185.5 161.5t261.5 62.5q139 0 233 -53l60 76q25 6 71 6q20 0 44 -1t40 -5l-121 -154q84 -109 84 -286q0 -127 -35.5 -250t-109.5 -221.5t-186.5 -159t-264.5 -60.5q-127 0 -221 45l-57 -73 q-14 -4 -37 -5t-43 -1q-23 0 -42.5 1t-33.5 5zM451 348l372 475q-39 33 -100 33q-78 0 -129 -51t-84 -125t-46 -156t-13 -145v-31zM508 221q33 -25 88 -24q78 0 131 49t87 121.5t48.5 153.5t14.5 147v22z"/>
<glyph unicode="ù" horiz-adv-x="1198" d="M197 248q0 31 4 65.5t10 73.5l119 672q39 6 76.5 9t72.5 3q70 0 142 -12l-115 -649q-8 -41 -8 -78q0 -61 26.5 -86t75.5 -25q29 0 64.5 14.5t72.5 60.5t72 129t59 222l76 412q80 12 149.5 12t141.5 -12l-111 -604q-23 -129 -34 -228.5t-11 -154.5v-38q0 -15 2 -34 q-68 -12 -135 -12q-57 0 -127 12q-4 16 -8 38.5t-4 67.5q0 18 1 37t5 45q-25 -43 -61.5 -81.5t-83.5 -67.5t-101.5 -45.5t-109.5 -16.5q-123 0 -191.5 63t-68.5 208zM444 1473q41 6 79 9t91 3q100 0 185 -12l182 -252q-68 -12 -133 -13q-41 0 -78 4.5t-63 8.5z"/>
<glyph unicode="ú" horiz-adv-x="1198" d="M197 248q0 31 4 65.5t10 73.5l119 672q39 6 76.5 9t72.5 3q70 0 142 -12l-115 -649q-8 -41 -8 -78q0 -61 26.5 -86t75.5 -25q29 0 64.5 14.5t72.5 60.5t72 129t59 222l76 412q80 12 149.5 12t141.5 -12l-111 -604q-23 -129 -34 -228.5t-11 -154.5v-38q0 -15 2 -34 q-68 -12 -135 -12q-57 0 -127 12q-4 16 -8 38.5t-4 67.5q0 18 1 37t5 45q-25 -43 -61.5 -81.5t-83.5 -67.5t-101.5 -45.5t-109.5 -16.5q-123 0 -191.5 63t-68.5 208zM639 1221l209 252q82 12 184 12q53 0 91 -3t79 -9l-289 -252q-27 -4 -63.5 -8.5t-77.5 -4.5q-65 1 -133 13 z"/>
<glyph unicode="û" horiz-adv-x="1198" d="M197 248q0 31 4 65.5t10 73.5l119 672q39 6 76.5 9t72.5 3q70 0 142 -12l-115 -649q-8 -41 -8 -78q0 -61 26.5 -86t75.5 -25q29 0 64.5 14.5t72.5 60.5t72 129t59 222l76 412q80 12 149.5 12t141.5 -12l-111 -604q-23 -129 -34 -228.5t-11 -154.5v-38q0 -15 2 -34 q-68 -12 -135 -12q-57 0 -127 12q-4 16 -8 38.5t-4 67.5q0 18 1 37t5 45q-25 -43 -61.5 -81.5t-83.5 -67.5t-101.5 -45.5t-109.5 -16.5q-123 0 -191.5 63t-68.5 208zM432 1219l246 254q35 4 82 7t90 3q27 0 69 -2t80 -11l156 -251q-49 -12 -127 -13q-35 0 -74 3t-71 12 l-62 131l-104 -131q-29 -8 -70 -11.5t-78 -3.5q-82 1 -137 13z"/>
<glyph unicode="ü" horiz-adv-x="1198" d="M197 248q0 31 4 65.5t10 73.5l119 672q39 6 76.5 9t72.5 3q70 0 142 -12l-115 -649q-8 -41 -8 -78q0 -61 26.5 -86t75.5 -25q29 0 64.5 14.5t72.5 60.5t72 129t59 222l76 412q80 12 149.5 12t141.5 -12l-111 -604q-23 -129 -34 -228.5t-11 -154.5v-38q0 -15 2 -34 q-68 -12 -135 -12q-57 0 -127 12q-4 16 -8 38.5t-4 67.5q0 18 1 37t5 45q-25 -43 -61.5 -81.5t-83.5 -67.5t-101.5 -45.5t-109.5 -16.5q-123 0 -191.5 63t-68.5 208zM449 1214q2 63 11 123t32 119q33 6 68.5 9t64 3t64.5 -3t67 -9q-2 -63 -11.5 -122.5t-31.5 -119.5 q-35 -6 -70 -8t-65 -2q-27 0 -63.5 2t-65.5 8zM901 1214v22q0 52 8 101q10 59 35 119q33 6 69 9t64.5 3t64.5 -3t66 -9q-4 -61 -13 -120.5t-30 -121.5q-35 -6 -70.5 -8t-64.5 -2t-64.5 2t-64.5 8z"/>
<glyph unicode="ý" horiz-adv-x="1110" d="M55 -475q4 59 16.5 112.5t41.5 102.5q18 -8 43.5 -13.5t44.5 -5.5q25 0 57.5 5.5t70.5 31t80 77.5t85 145l10 22q-23 -4 -49.5 -5t-55.5 -1h-47q-27 0 -47 4l-96 1059q76 12 158 12q72 0 143 -12l55 -926l134 292l92 213q37 89 56 148.5t29.5 100.5t12.5 68.5t2 52.5 q0 20 -2 30l-4 21q35 6 73.5 9t79.5 3q82 0 154 -12q6 -18 6 -43q0 -35 -9 -77t-22.5 -84t-28.5 -81l-28 -69q-53 -127 -148 -325l-245 -501q-63 -127 -125 -202.5t-125.5 -114.5t-127 -50.5t-128.5 -11.5q-47 0 -81 6.5t-75 18.5zM553 1221l209 252q82 12 184 12 q53 0 91 -3t79 -9l-289 -252q-27 -4 -63.5 -8.5t-77.5 -4.5q-65 1 -133 13z"/>
<glyph unicode="þ" horiz-adv-x="1204" d="M66 -483l268 1523q23 129 35 228.5t12 154.5v38q0 15 -2 34q68 12 133 12q31 0 75 -2t79 -8q4 -16 7 -39.5t3 -68.5q0 -20 -3 -54.5t-9.5 -76l-14.5 -88.5l-16 -93l-39 -200q47 88 132 147t208 59q143 0 220 -98t77 -285q0 -127 -39 -256t-124 -233.5t-220 -170 t-330 -65.5q-35 0 -52 2.5t-28 4.5l-82 -465q-41 -8 -77.5 -10.5t-69.5 -2.5q-35 0 -69.5 2.5t-73.5 10.5zM481 227q16 -6 42 -8t52 -2q90 0 155 42t107 106.5t61.5 142.5t19.5 151q0 72 -30 124.5t-102 52.5q-94 0 -161.5 -80t-98.5 -264z"/>
<glyph unicode="ÿ" horiz-adv-x="1110" d="M55 -475q4 59 16.5 112.5t41.5 102.5q18 -8 43.5 -13.5t44.5 -5.5q25 0 57.5 5.5t70.5 31t80 77.5t85 145l10 22q-23 -4 -49.5 -5t-55.5 -1h-47q-27 0 -47 4l-96 1059q76 12 158 12q72 0 143 -12l55 -926l134 292l92 213q37 89 56 148.5t29.5 100.5t12.5 68.5t2 52.5 q0 20 -2 30l-4 21q35 6 73.5 9t79.5 3q82 0 154 -12q6 -18 6 -43q0 -35 -9 -77t-22.5 -84t-28.5 -81l-28 -69q-53 -127 -148 -325l-245 -501q-63 -127 -125 -202.5t-125.5 -114.5t-127 -50.5t-128.5 -11.5q-47 0 -81 6.5t-75 18.5zM362 1214q2 63 11.5 123t32.5 119 q33 6 68.5 9t64 3t64.5 -3t67 -9q-2 -63 -11.5 -122.5t-31.5 -119.5q-35 -6 -70 -8t-65 -2q-27 0 -64 2t-66 8zM815 1214v22q0 52 8 101q10 59 35 119q33 6 69 9t64.5 3t64.5 -3t66 -9q-4 -61 -13 -120.5t-30 -121.5q-35 -6 -70.5 -8t-64.5 -2t-64.5 2t-64.5 8z"/>
<glyph unicode="Œ" horiz-adv-x="1841" d="M205 532q0 168 45 339t137 310.5t233.5 227.5t335.5 88q123 0 220 -24h806q0 -8 1.5 -16.5t1.5 -16.5q0 -53 -12.5 -108.5t-35.5 -112.5h-507l-56 -320h404q0 -123 -45 -256h-404l-69 -389h522q0 -8 1 -15.5t1 -15.5q0 -55 -13.5 -109.5t-31.5 -113.5h-815 q-47 -12 -104.5 -18.5t-112.5 -6.5q-129 0 -224.5 39t-157 111t-91 175t-29.5 232zM516 537q0 -162 52.5 -242t168.5 -80q59 0 118.5 11.5t107.5 37.5l167 957q-90 31 -176 30q-84 0 -149.5 -35.5t-113.5 -95t-82 -135.5t-54 -155.5t-29.5 -156.5t-9.5 -136z"/>
<glyph unicode="œ" horiz-adv-x="1718" d="M160 389q0 123 36.5 247t108.5 223t180.5 161.5t253.5 62.5q131 0 210 -53t116 -129q70 72 167 127t234 55q59 0 113.5 -16t95.5 -50t65.5 -83t24.5 -115q0 -92 -43 -159.5t-114.5 -114.5t-162.5 -77t-190 -44l-137 -23q12 -98 65.5 -146t155.5 -48q82 0 144.5 17.5 t132.5 45.5q33 -41 44 -99t11 -124q-35 -16 -81 -29.5t-95 -22.5t-98 -14.5t-88 -5.5q-152 0 -238 55.5t-127 129.5q-29 -33 -66.5 -66t-88 -59.5t-112 -43t-134.5 -16.5q-190 0 -286.5 110.5t-96.5 303.5zM451 379q0 -182 145 -182q78 0 131 49t87 121.5t48.5 153.5 t14.5 147q0 188 -154 188q-78 0 -129 -51t-84 -125t-46 -156t-13 -145zM1128 594l107 16q78 12 127 32t77.5 43.5t39 48t10.5 48.5q0 39 -25.5 63.5t-68.5 24.5q-53 0 -97.5 -23.5t-77 -62.5t-56.5 -89t-36 -101z"/>
<glyph unicode="Ÿ" horiz-adv-x="1153" d="M242 1473q88 12 166 12q37 0 73.5 -2t75.5 -10l158 -654l379 654q41 6 82 8t81 2q35 0 75 -2t79 -8l-600 -947l-92 -526q-43 -8 -81 -10t-75 -2q-35 0 -70.5 2t-74.5 10l92 526zM492 1591q2 63 11 123t32 119q33 6 68.5 9t64 3t64.5 -3t67 -9q-2 -63 -11.5 -122.5 t-31.5 -119.5q-35 -6 -70 -8t-65 -2q-27 0 -63.5 2t-65.5 8zM944 1591v21q0 52 8 102q10 59 35 119q33 6 69 9t64.5 3t64.5 -3t66 -9q-4 -61 -13 -120.5t-30 -121.5q-35 -6 -70.5 -8t-64.5 -2t-64.5 2t-64.5 8z"/>
<glyph unicode="ˆ" horiz-adv-x="1019" d="M377 1219l246 254q35 4 82 7t90 3q27 0 68.5 -2t80.5 -11l156 -251q-49 -12 -127 -13q-35 0 -74 3t-72 12l-61 131l-104 -131q-29 -8 -70 -11.5t-78 -3.5q-82 1 -137 13z"/>
<glyph unicode="˜" horiz-adv-x="1024" d="M354 1370q41 45 106.5 80t141.5 35q39 0 73 -11.5t66.5 -24.5t67.5 -24.5t74 -11.5q35 0 66.5 9.5t78.5 47.5q25 -29 46.5 -70.5t25.5 -80.5q-43 -45 -108.5 -78t-141.5 -33q-39 0 -74 11.5t-68.5 24.5t-67.5 24.5t-71 11.5q-39 0 -67.5 -11.5t-75.5 -45.5 q-23 25 -45.5 66.5t-26.5 80.5z"/>
<glyph unicode="–" horiz-adv-x="1024" d="M82 436v24q0 63 9 108q11 54 32 120h1024q1 -16 1 -31q0 -47 -9 -94q-12 -61 -35 -127h-1022z"/>
<glyph unicode="—" horiz-adv-x="2048" d="M68 436l-2 34q0 47 9 95q11 66 34 123h2048q1 -16 1 -31q0 -47 -10 -94q-12 -61 -34 -127h-2046z"/>
<glyph unicode="‘" horiz-adv-x="581" d="M283 1470q35 8 73.5 11.5t71.5 3.5t67.5 -3t69.5 -12l135 -524q-35 -8 -66.5 -10t-64 -2t-67.5 2t-70 10z"/>
<glyph unicode="’" horiz-adv-x="557" d="M231 946l228 524q35 8 70.5 11.5t68.5 3.5t72 -3t71 -12l-241 -524q-35 -8 -71 -10t-68.5 -2t-64.5 2t-65 10z"/>
<glyph unicode="‚" horiz-adv-x="593" d="M37 -229l221 522q35 10 71 13t68.5 3t71.5 -3t72 -13l-234 -522q-37 -8 -71.5 -10.5t-67.5 -2.5t-64.5 2.5t-66.5 10.5z"/>
<glyph unicode="“" horiz-adv-x="1015" d="M283 1470q35 8 73.5 11.5t71.5 3.5t67.5 -3t69.5 -12l135 -524q-35 -8 -66.5 -10t-64 -2t-67.5 2t-70 10zM717 1470q35 8 73.5 11.5t71.5 3.5t68 -3t69 -12l136 -524q-35 -8 -67 -10t-64.5 -2t-67.5 2t-70 10z"/>
<glyph unicode="”" horiz-adv-x="991" d="M231 946l228 524q35 8 70.5 11.5t68.5 3.5t72 -3t71 -12l-241 -524q-35 -8 -71 -10t-68.5 -2t-64.5 2t-65 10zM666 946l227 524q35 8 70.5 11.5t68.5 3.5t72 -3t72 -12l-242 -524q-35 -8 -71 -10t-68.5 -2t-64 2t-64.5 10z"/>
<glyph unicode="„" horiz-adv-x="1028" d="M37 -229l221 522q35 10 71 13t68.5 3t71.5 -3t72 -13l-234 -522q-37 -8 -71.5 -10.5t-67.5 -2.5t-64.5 2.5t-66.5 10.5zM471 -229l221 522q35 10 71 13t68.5 3t71.5 -3t72 -13l-234 -522q-37 -8 -71.5 -10.5t-67.5 -2.5t-64.5 2.5t-66.5 10.5z"/>
<glyph unicode="•" horiz-adv-x="921" d="M281 751.5q0 63.5 24.5 119t65.5 97.5t97 66.5t119.5 24.5t119 -24.5t97.5 -66.5t66.5 -97.5t24.5 -119t-24.5 -120t-66.5 -97t-97.5 -65.5t-119 -25t-119.5 25t-97 65.5t-65.5 97t-24.5 120z"/>
<glyph unicode="…" horiz-adv-x="1697" d="M145 0q0 80 13.5 151.5t38.5 147.5q41 8 77.5 11t73.5 3q35 0 73 -3t75 -11q0 -80 -13.5 -151.5t-38.5 -147.5q-41 -8 -77.5 -11t-73.5 -3q-35 0 -73 3t-75 11zM698 0q0 80 13.5 151.5t38.5 147.5q41 8 77.5 11t73.5 3q35 0 73 -3t75 -11q0 -80 -13.5 -151.5 t-38.5 -147.5q-41 -8 -77.5 -11t-73.5 -3q-35 0 -73 3t-75 11zM1251 0q0 80 13.5 151.5t38.5 147.5q41 8 77.5 11t73.5 3q35 0 73 -3t75 -11q0 -80 -13.5 -151.5t-38.5 -147.5q-41 -8 -77.5 -11t-73.5 -3q-35 0 -73 3t-75 11z"/>
<glyph unicode="‹" horiz-adv-x="782" d="M178 551l430 448q63 12 140 13q41 0 89 -3t89 -10l-437 -467l256 -442q-80 -12 -163 -12q-72 0 -136 12z"/>
<glyph unicode="›" horiz-adv-x="800" d="M72 90l442 479l-262 430q80 12 164 13q70 0 135 -13l270 -471l-424 -438q-33 -6 -72.5 -9t-74.5 -3q-41 0 -89 3t-89 9z"/>
<glyph unicode="€" d="M133 457q-4 88 31 172h155l9 84q4 41 12 82h-145q-4 39 4 85t24 87h166q43 113 110.5 206t156.5 159.5t200 102t242 35.5q96 0 178 -15t147 -50q-12 -63 -31.5 -115.5t-54.5 -118.5q-70 27 -124 35t-109 8q-150 0 -243 -68.5t-146 -178.5h422q6 -43 -4.5 -87t-24.5 -85 h-449q-14 -80 -18 -166h436q6 -39 -4 -89.5t-26 -82.5h-400q18 -113 86 -167t201 -54q31 0 57.5 2t53 6t57.5 13l69 22q23 -53 36.5 -118t17.5 -128q-45 -18 -96.5 -29.5t-99.5 -17.5t-90 -8.5t-67 -2.5q-137 0 -236 34t-166 97.5t-103.5 152.5t-44.5 198h-189z"/>
<glyph unicode="™" horiz-adv-x="1638" d="M233 1346q0 55 9 102h602q4 -25 6 -49.5t2 -49t-2 -49t-6 -47.5h-195v-622q-29 -6 -55.5 -10.5t-54.5 -4.5q-51 0 -101 15v622h-196q-9 42 -9 93zM926 631l45 815l62 7q28 3 52 3q20 0 45 -3l60 -7l156 -389l151 389l52 7q24 3 50 3q23 0 50.5 -3t58.5 -7l45 -815 q-33 -6 -57.5 -9.5t-48.5 -3.5q-20 0 -46 1.5t-59 11.5l-26 416l-115 -269q-18 -4 -33.5 -5t-42.5 -1q-16 0 -33.5 1t-46.5 5l-94 260l-21 -407q-31 -10 -55 -11.5t-45 -1.5q-23 0 -46 3.5t-58 9.5z"/>
<glyph unicode="" horiz-adv-x="1070" d="M0 1070h1070v-1070h-1070v1070z"/>
<glyph unicode="ﬁ" horiz-adv-x="1220" d="M-211 -471q10 123 68 221q23 -8 50 -13t44 -5q39 0 73.5 11t64.5 45t53.5 93.5t39.5 155.5l144 801h-170q0 55 8 108t31 113h170l4 16q41 229 161.5 338t325.5 109q88 0 179 -20.5t145 -49.5q-14 -68 -36 -120t-50 -105q-47 29 -114 44t-122 15q-41 0 -72.5 -9 t-57.5 -31.5t-44 -63.5t-31 -105l-4 -18h602l-186 -1059q-77 -12 -147 -12q-63 0 -138 12l148 838h-318l-147 -828q-27 -150 -73 -248t-107.5 -156.5t-139 -82t-168.5 -23.5q-94 0 -186 29z"/>
<glyph unicode="ﬂ" horiz-adv-x="1316" d="M-211 -471q10 123 68 221q23 -8 50 -13t44 -5q39 0 73.5 11t64.5 45t53.5 93.5t39.5 155.5l144 801h-170q0 55 8 108t31 113h170l4 16q41 229 161.5 338t325.5 109q125 0 247 -28t202 -60q10 -31 10 -78q0 -43 -8.5 -98.5t-20.5 -120.5l-145 -760q-6 -35 -6 -58 q0 -33 9 -51t23.5 -28.5t33 -13.5t36.5 -3q8 0 30.5 3t41.5 10q10 -35 17 -76t7 -84q0 -16 -1 -30.5t-3 -31.5q-31 -12 -80 -19t-108 -7q-139 0 -219 68.5t-80 215.5q0 29 4 61t10 66l123 637l21.5 121t13.5 103q-39 12 -80 19t-76 7q-41 0 -72.5 -9t-57.5 -31.5t-44 -63.5 t-31 -105l-4 -18h223q0 -59 -8 -109.5t-30 -111.5h-224l-147 -828q-27 -150 -73 -248t-107.5 -156.5t-139 -82t-168.5 -23.5q-94 0 -186 29z"/>
<glyph unicode="ﬃ" horiz-adv-x="1841" d="M-211 -471q10 123 68 221q23 -8 50 -13t44 -5q39 0 73.5 11t64.5 45t53.5 93.5t39.5 155.5l144 801h-170q0 55 8 108t31 113h170l4 16q41 229 152.5 338t297.5 109q59 0 109.5 -9.5t91.5 -23.5q-14 -68 -31.5 -120t-46.5 -105q-18 8 -49 15t-65.5 7t-61.5 -9t-48.5 -31.5 t-36.5 -63.5t-28 -105l-4 -18h336l4 16q41 229 162 338t326 109q88 0 179 -20.5t144 -49.5q-14 -68 -35.5 -120t-50.5 -105q-47 29 -113.5 44t-121.5 15q-41 0 -73 -9t-57.5 -31.5t-44 -63.5t-30.5 -105l-4 -18h602l-187 -1059q-78 -12 -147 -12q-63 0 -137 12l147 838h-317 l-148 -828q-27 -150 -72.5 -248t-107 -156.5t-139.5 -82t-168 -23.5q-94 0 -186 29q10 123 67 221q23 -8 50.5 -13t43.5 -5q39 0 74 11t64.5 45t53 93.5t40.5 155.5l143 801h-336l-147 -828q-27 -150 -73 -248t-107.5 -156.5t-139 -82t-168.5 -23.5q-94 0 -186 29z"/>
<glyph unicode="ﬄ" horiz-adv-x="1949" d="M-211 -471q10 123 68 221q23 -8 50 -13t44 -5q39 0 73.5 11t64.5 45t53.5 93.5t39.5 155.5l144 801h-170q0 55 8 108t31 113h170l4 16q41 229 152.5 338t297.5 109q59 0 109.5 -9.5t91.5 -23.5q-14 -68 -31.5 -120t-46.5 -105q-18 8 -49 15t-65.5 7t-61.5 -9t-48.5 -31.5 t-36.5 -63.5t-28 -105l-4 -18h348l4 16q41 229 162 338t326 109q125 0 247 -28t201 -60q10 -31 11 -78q0 -43 -8.5 -98.5t-20.5 -120.5l-145 -760q-6 -35 -7 -58q0 -33 9.5 -51t24 -28.5t32.5 -13.5t37 -3q8 0 30.5 3t40.5 10q10 -35 17.5 -76t7.5 -84q0 -16 -1 -30.5 t-3 -31.5q-31 -12 -80 -19t-108 -7q-139 0 -219 68.5t-80 215.5q0 29 4 61t10 66l123 637q12 66 21 121t14 103q-39 12 -80 19t-76 7q-41 0 -73 -9t-57.5 -31.5t-44 -63.5t-30.5 -105l-4 -18h223q0 -59 -8 -109.5t-31 -111.5h-223l-147 -828q-27 -150 -73 -248 t-107.5 -156.5t-139.5 -82t-168 -23.5q-94 0 -186 29q10 123 67 221q23 -8 50.5 -13t44.5 -5q39 0 73.5 11t64.5 45t53.5 93.5t39.5 155.5l143 801h-348l-147 -828q-27 -150 -73 -248t-107.5 -156.5t-139 -82t-168.5 -23.5q-94 0 -186 29z"/>
</font>
</defs></svg>